%!PS-Adobe-3.0 EPSF-3.0
%%Creator: MATLAB, The Mathworks, Inc. Version 7.8.0.347 (R2009a). Operating System: Linux 2.6.27.29-170.2.79.fc10.x86_64 #1 SMP Fri Aug 14 20:49:37 EDT 2009 x86_64.
%%Title: /groups/chklovskii/home/vitaladevunis/research/em_reconstruction_pipeline/reconstructions/scripts/linkage_experiments/result_figures/linkage_exp_fly_larva_no_ua_segment_rand_08242009.eps
%%CreationDate: 08/26/2009  16:19:21
%%DocumentNeededFonts: Helvetica
%%DocumentProcessColors: Cyan Magenta Yellow Black
%%LanguageLevel: 2
%%Pages: 1
%%BoundingBox:  -360    21   972   771
%%EndComments

%%BeginProlog
% MathWorks dictionary
/MathWorks 160 dict begin
% definition operators
/bdef {bind def} bind def
/ldef {load def} bind def
/xdef {exch def} bdef
/xstore {exch store} bdef
% operator abbreviations
/c  /clip ldef
/cc /concat ldef
/cp /closepath ldef
/gr /grestore ldef
/gs /gsave ldef
/mt /moveto ldef
/np /newpath ldef
/cm /currentmatrix ldef
/sm /setmatrix ldef
/rm /rmoveto ldef
/rl /rlineto ldef
/s {show newpath} bdef
/sc {setcmykcolor} bdef
/sr /setrgbcolor ldef
/sg /setgray ldef
/w /setlinewidth ldef
/j /setlinejoin ldef
/cap /setlinecap ldef
/rc {rectclip} bdef
/rf {rectfill} bdef
% page state control
/pgsv () def
/bpage {/pgsv save def} bdef
/epage {pgsv restore} bdef
/bplot /gsave ldef
/eplot {stroke grestore} bdef
% orientation switch
/portraitMode 0 def /landscapeMode 1 def /rotateMode 2 def
% coordinate system mappings
/dpi2point 0 def
% font control
/FontSize 0 def
/FMS {/FontSize xstore findfont [FontSize 0 0 FontSize neg 0 0]
  makefont setfont} bdef
/reencode {exch dup where {pop load} {pop StandardEncoding} ifelse
  exch dup 3 1 roll findfont dup length dict begin
  { 1 index /FID ne {def}{pop pop} ifelse } forall
  /Encoding exch def currentdict end definefont pop} bdef
/isroman {findfont /CharStrings get /Agrave known} bdef
/FMSR {3 1 roll 1 index dup isroman {reencode} {pop pop} ifelse
  exch FMS} bdef
/csm {1 dpi2point div -1 dpi2point div scale neg translate
 dup landscapeMode eq {pop -90 rotate}
  {rotateMode eq {90 rotate} if} ifelse} bdef
% line types: solid, dotted, dashed, dotdash
/SO { [] 0 setdash } bdef
/DO { [.5 dpi2point mul 4 dpi2point mul] 0 setdash } bdef
/DA { [6 dpi2point mul] 0 setdash } bdef
/DD { [.5 dpi2point mul 4 dpi2point mul 6 dpi2point mul 4
  dpi2point mul] 0 setdash } bdef
% macros for lines and objects
/L {lineto stroke} bdef
/MP {3 1 roll moveto 1 sub {rlineto} repeat} bdef
/AP {{rlineto} repeat} bdef
/PDlw -1 def
/W {/PDlw currentlinewidth def setlinewidth} def
/PP {closepath eofill} bdef
/DP {closepath stroke} bdef
/MR {4 -2 roll moveto dup  0 exch rlineto exch 0 rlineto
  neg 0 exch rlineto closepath} bdef
/FR {MR stroke} bdef
/PR {MR fill} bdef
/L1i {{currentfile picstr readhexstring pop} image} bdef
/tMatrix matrix def
/MakeOval {newpath tMatrix currentmatrix pop translate scale
0 0 1 0 360 arc tMatrix setmatrix} bdef
/FO {MakeOval stroke} bdef
/PO {MakeOval fill} bdef
/PD {currentlinewidth 2 div 0 360 arc fill
   PDlw -1 eq not {PDlw w /PDlw -1 def} if} def
/FA {newpath tMatrix currentmatrix pop translate scale
  0 0 1 5 -2 roll arc tMatrix setmatrix stroke} bdef
/PA {newpath tMatrix currentmatrix pop	translate 0 0 moveto scale
  0 0 1 5 -2 roll arc closepath tMatrix setmatrix fill} bdef
/FAn {newpath tMatrix currentmatrix pop translate scale
  0 0 1 5 -2 roll arcn tMatrix setmatrix stroke} bdef
/PAn {newpath tMatrix currentmatrix pop translate 0 0 moveto scale
  0 0 1 5 -2 roll arcn closepath tMatrix setmatrix fill} bdef
/vradius 0 def /hradius 0 def /lry 0 def
/lrx 0 def /uly 0 def /ulx 0 def /rad 0 def
/MRR {/vradius xdef /hradius xdef /lry xdef /lrx xdef /uly xdef
  /ulx xdef newpath tMatrix currentmatrix pop ulx hradius add uly
  vradius add translate hradius vradius scale 0 0 1 180 270 arc 
  tMatrix setmatrix lrx hradius sub uly vradius add translate
  hradius vradius scale 0 0 1 270 360 arc tMatrix setmatrix
  lrx hradius sub lry vradius sub translate hradius vradius scale
  0 0 1 0 90 arc tMatrix setmatrix ulx hradius add lry vradius sub
  translate hradius vradius scale 0 0 1 90 180 arc tMatrix setmatrix
  closepath} bdef
/FRR {MRR stroke } bdef
/PRR {MRR fill } bdef
/MlrRR {/lry xdef /lrx xdef /uly xdef /ulx xdef /rad lry uly sub 2 div def
  newpath tMatrix currentmatrix pop ulx rad add uly rad add translate
  rad rad scale 0 0 1 90 270 arc tMatrix setmatrix lrx rad sub lry rad
  sub translate rad rad scale 0 0 1 270 90 arc tMatrix setmatrix
  closepath} bdef
/FlrRR {MlrRR stroke } bdef
/PlrRR {MlrRR fill } bdef
/MtbRR {/lry xdef /lrx xdef /uly xdef /ulx xdef /rad lrx ulx sub 2 div def
  newpath tMatrix currentmatrix pop ulx rad add uly rad add translate
  rad rad scale 0 0 1 180 360 arc tMatrix setmatrix lrx rad sub lry rad
  sub translate rad rad scale 0 0 1 0 180 arc tMatrix setmatrix
  closepath} bdef
/FtbRR {MtbRR stroke } bdef
/PtbRR {MtbRR fill } bdef
/stri 6 array def /dtri 6 array def
/smat 6 array def /dmat 6 array def
/tmat1 6 array def /tmat2 6 array def /dif 3 array def
/asub {/ind2 exch def /ind1 exch def dup dup
  ind1 get exch ind2 get sub exch } bdef
/tri_to_matrix {
  2 0 asub 3 1 asub 4 0 asub 5 1 asub
  dup 0 get exch 1 get 7 -1 roll astore } bdef
/compute_transform {
  dmat dtri tri_to_matrix tmat1 invertmatrix 
  smat stri tri_to_matrix tmat2 concatmatrix } bdef
/ds {stri astore pop} bdef
/dt {dtri astore pop} bdef
/db {2 copy /cols xdef /rows xdef mul dup 3 mul string
  currentfile 
  3 index 0 eq {/ASCIIHexDecode filter}
  {/ASCII85Decode filter 3 index 2 eq {/RunLengthDecode filter} if }
  ifelse exch readstring pop
  dup 0 3 index getinterval /rbmap xdef
  dup 2 index dup getinterval /gbmap xdef
  1 index dup 2 mul exch getinterval /bbmap xdef pop pop}bdef
/it {gs np dtri aload pop moveto lineto lineto cp c
  cols rows 8 compute_transform 
  rbmap gbmap bbmap true 3 colorimage gr}bdef
/il {newpath moveto lineto stroke}bdef
currentdict end def
%%EndProlog

%%BeginSetup
MathWorks begin

0 cap

end
%%EndSetup

%%Page: 1 1
%%BeginPageSetup
%%PageBoundingBox:  -360    21   972   771
MathWorks begin
bpage
%%EndPageSetup

%%BeginObject: obj1
bplot

/dpi2point 12 def
portraitMode -4320 9252 csm

    0     0 15984  8995 rc
88 dict begin %Colortable dictionary
/c0 { 0.000000 0.000000 0.000000 sr} bdef
/c1 { 1.000000 1.000000 1.000000 sr} bdef
/c2 { 0.900000 0.000000 0.000000 sr} bdef
/c3 { 0.000000 0.820000 0.000000 sr} bdef
/c4 { 0.000000 0.000000 0.800000 sr} bdef
/c5 { 0.910000 0.820000 0.320000 sr} bdef
/c6 { 1.000000 0.260000 0.820000 sr} bdef
/c7 { 0.000000 0.820000 0.820000 sr} bdef
c0
1 j
1 sg
   0    0 15985 8996 rf
6 w
0 7331 12388 0 0 -7331 2078 8006 4 MP
PP
-12388 0 0 7331 12388 0 0 -7331 2078 8006 5 MP stroke
4 w
DO
0 sg
2078 8006 mt 2078  675 L
2078  675 mt 2078  675 L
3626 8006 mt 3626  675 L
3626  675 mt 3626  675 L
5175 8006 mt 5175  675 L
5175  675 mt 5175  675 L
6723 8006 mt 6723  675 L
6723  675 mt 6723  675 L
8272 8006 mt 8272  675 L
8272  675 mt 8272  675 L
9820 8006 mt 9820  675 L
9820  675 mt 9820  675 L
11369 8006 mt 11369  675 L
11369  675 mt 11369  675 L
12917 8006 mt 12917  675 L
12917  675 mt 12917  675 L
14466 8006 mt 14466  675 L
14466  675 mt 14466  675 L
2078 8006 mt 14466 8006 L
14466 8006 mt 14466 8006 L
2078 6833 mt 14466 6833 L
14466 6833 mt 14466 6833 L
2078 5660 mt 14466 5660 L
14466 5660 mt 14466 5660 L
2078 4487 mt 14466 4487 L
14466 4487 mt 14466 4487 L
2078 3314 mt 14466 3314 L
14466 3314 mt 14466 3314 L
2078 2141 mt 14466 2141 L
14466 2141 mt 14466 2141 L
2078  968 mt 14466  968 L
14466  968 mt 14466  968 L
SO
6 w
2078 8006 mt 14466 8006 L
2078  675 mt 14466  675 L
2078 8006 mt 2078  675 L
14466 8006 mt 14466  675 L
2078 8006 mt 14466 8006 L
2078 8006 mt 2078  675 L
2078 8006 mt 2078 7882 L
2078  675 mt 2078  798 L
%%IncludeResource: font Helvetica
/Helvetica /ISOLatin1Encoding 120 FMSR

2045 8151 mt 
(0) s
3626 8006 mt 3626 7882 L
3626  675 mt 3626  798 L
3526 8151 mt 
(500) s
5175 8006 mt 5175 7882 L
5175  675 mt 5175  798 L
5042 8151 mt 
(1000) s
6723 8006 mt 6723 7882 L
6723  675 mt 6723  798 L
6590 8151 mt 
(1500) s
8272 8006 mt 8272 7882 L
8272  675 mt 8272  798 L
8139 8151 mt 
(2000) s
9820 8006 mt 9820 7882 L
9820  675 mt 9820  798 L
9687 8151 mt 
(2500) s
11369 8006 mt 11369 7882 L
11369  675 mt 11369  798 L
11236 8151 mt 
(3000) s
12917 8006 mt 12917 7882 L
12917  675 mt 12917  798 L
12784 8151 mt 
(3500) s
14466 8006 mt 14466 7882 L
14466  675 mt 14466  798 L
14333 8151 mt 
(4000) s
2078 8006 mt 2201 8006 L
14466 8006 mt 14342 8006 L
1977 8050 mt 
(0) s
2078 6833 mt 2201 6833 L
14466 6833 mt 14342 6833 L
1977 6877 mt 
(1) s
2078 5660 mt 2201 5660 L
14466 5660 mt 14342 5660 L
1977 5704 mt 
(2) s
2078 4487 mt 2201 4487 L
14466 4487 mt 14342 4487 L
1977 4531 mt 
(3) s
2078 3314 mt 2201 3314 L
14466 3314 mt 14342 3314 L
1977 3358 mt 
(4) s
2078 2141 mt 2201 2141 L
14466 2141 mt 14342 2141 L
1977 2185 mt 
(5) s
2078  968 mt 2201  968 L
14466  968 mt 14342  968 L
1977 1012 mt 
(6) s
2078  621 mt 
(x 10) s
%%IncludeResource: font Helvetica
/Helvetica /ISOLatin1Encoding 80 FMSR

2304  547 mt 
(4) s
2078 8006 mt 14466 8006 L
2078  675 mt 14466  675 L
2078 8006 mt 2078  675 L
14466 8006 mt 14466  675 L
gs 2078 675 12389 7332 rc
36 w
/c8 { 0.000000 0.000000 1.000000 sr} bdef
c8
-40 -69 -124 -75 -22 -49 -71 -51 -22 -41 -111 -86 -34 -25 -174 -42 
-492 -52 -257 -40 -1090 -66 -1471 -81 -1447 -156 -1313 -105 -1985 -165 -3721 -285 
14467 2330 17 MP stroke
gr

36 w
c8
0 j
0 -94 -94 0 0 94 94 0 10699 1998 5 MP
DP
0 -94 -94 0 0 94 94 0 8714 1833 5 MP
DP
0 -94 -94 0 0 94 94 0 7401 1728 5 MP
DP
0 -94 -94 0 0 94 94 0 5954 1572 5 MP
DP
0 -94 -94 0 0 94 94 0 4483 1491 5 MP
DP
0 -94 -94 0 0 94 94 0 3393 1425 5 MP
DP
0 -94 -94 0 0 94 94 0 3136 1385 5 MP
DP
0 -94 -94 0 0 94 94 0 2644 1333 5 MP
DP
0 -94 -94 0 0 94 94 0 2470 1291 5 MP
DP
0 -94 -94 0 0 94 94 0 2436 1266 5 MP
DP
0 -94 -94 0 0 94 94 0 2325 1180 5 MP
DP
0 -94 -94 0 0 94 94 0 2303 1139 5 MP
DP
0 -94 -94 0 0 94 94 0 2232 1088 5 MP
DP
0 -94 -94 0 0 94 94 0 2210 1039 5 MP
DP
0 -94 -94 0 0 94 94 0 2086 964 5 MP
DP
0 -94 -94 0 0 94 94 0 2046 895 5 MP
DP
gs 2078 675 12389 7332 rc
gr

0 sg
%%IncludeResource: font Helvetica
/Helvetica /ISOLatin1Encoding 120 FMSR

7959 8294 mt 
(false merge) s
1895 4589 mt  -90 rotate
(false split) s
90 rotate
6717  526 mt 
(Linkage segment-wise rand boost overlap) s
%%IncludeResource: font Helvetica
/Helvetica /ISOLatin1Encoding 96 FMSR

8963  586 mt 
(a) s
%%IncludeResource: font Helvetica
/Helvetica /ISOLatin1Encoding 120 FMSR

9016  526 mt 
(rea .08222009k) s
2061 8049 mt 
( ) s
14450  717 mt 
( ) s
gs 2078 675 12389 7332 rc
/c9 { 1.000000 0.000000 0.000000 sr} bdef
c9
-43 -69 -96 -111 -248 -112 -111 -69 -161 -120 -171 -181 -399 -160 -607 -155 
-833 -154 -812 -171 -743 -160 -2434 -234 -3497 -270 -2039 -114 14467 3554 15 MP stroke
gr

c9
0 -94 -94 0 0 94 94 0 12381 3393 5 MP
DP
0 -94 -94 0 0 94 94 0 8884 3123 5 MP
DP
0 -94 -94 0 0 94 94 0 6450 2889 5 MP
DP
0 -94 -94 0 0 94 94 0 5707 2729 5 MP
DP
0 -94 -94 0 0 94 94 0 4895 2558 5 MP
DP
0 -94 -94 0 0 94 94 0 4062 2404 5 MP
DP
0 -94 -94 0 0 94 94 0 3455 2249 5 MP
DP
0 -94 -94 0 0 94 94 0 3056 2089 5 MP
DP
0 -94 -94 0 0 94 94 0 2885 1908 5 MP
DP
0 -94 -94 0 0 94 94 0 2724 1788 5 MP
DP
0 -94 -94 0 0 94 94 0 2613 1719 5 MP
DP
0 -94 -94 0 0 94 94 0 2365 1607 5 MP
DP
0 -94 -94 0 0 94 94 0 2269 1496 5 MP
DP
0 -94 -94 0 0 94 94 0 2226 1427 5 MP
DP
gs 2078 675 12389 7332 rc
gr

/c10 { 1.000000 0.000000 1.000000 sr} bdef
c10
  60   60 2818 1389 FO
gs 2078 675 12389 7332 rc
gr

/c11 { 0.000000 0.749020 0.749020 sr} bdef
c11
  60   60 13084 2213 FO
gs 2078 675 12389 7332 rc
gr

60 79 -60 79 -60 -79 60 -79 8337 2620 5 MP
/c12 { 0.043137 0.517647 0.780392 sr} bdef
c12
DP
gs 2078 675 12389 7332 rc
/c13 { 0.000000 1.000000 1.000000 sr} bdef
c13
4076 1254 1335 514 350 81 2966 1643 4 MP stroke
gr

c13
60 79 -60 79 -60 -79 60 -79 2966 1722 5 MP
DP
60 79 -60 79 -60 -79 60 -79 3316 1803 5 MP
DP
60 79 -60 79 -60 -79 60 -79 4651 2317 5 MP
DP
60 79 -60 79 -60 -79 60 -79 8727 3571 5 MP
DP
gs 2078 675 12389 7332 rc
0 sg
1335 198 1134 295 247 352 471 227 211 353 2359 1717 6 MP stroke
gr

0 sg
-35 -26 13 -41 -36 24 -35 -24 13 41 -35 26 43 0 14 41 
15 -41 43 0 2301 1698 11 MP
DP
-35 -26 13 -41 -36 24 -35 -24 13 41 -35 26 43 0 14 41 
15 -41 43 0 2512 2051 11 MP
DP
-35 -26 13 -41 -36 24 -35 -24 13 41 -35 26 43 0 14 41 
15 -41 43 0 2983 2278 11 MP
DP
-35 -26 13 -41 -36 24 -35 -24 13 41 -35 26 43 0 14 41 
15 -41 43 0 3230 2630 11 MP
DP
-35 -26 13 -41 -36 24 -35 -24 13 41 -35 26 43 0 14 41 
15 -41 43 0 4364 2925 11 MP
DP
-35 -26 13 -41 -36 24 -35 -24 13 41 -35 26 43 0 14 41 
15 -41 43 0 5699 3123 11 MP
DP
gs 2078 675 12389 7332 rc
6 w
gr

6 w
1 sg
0 1824 3768 0 0 -1824 5875 7362 4 MP
PP
-3768 0 0 1824 3768 0 0 -1824 5875 7362 5 MP stroke
4 w
DO
SO
6 w
0 sg
5875 7362 mt 9643 7362 L
5875 5538 mt 9643 5538 L
5875 7362 mt 5875 5538 L
9643 7362 mt 9643 5538 L
5875 7362 mt 9643 7362 L
5875 7362 mt 5875 5538 L
5875 7362 mt 9643 7362 L
5875 5538 mt 9643 5538 L
5875 7362 mt 5875 5538 L
9643 7362 mt 9643 5538 L
6343 5733 mt 
(boost overlap_area .08222009k) s
gs 5875 5538 3769 1825 rc
36 w
c8
360 0 5947 5691 2 MP stroke
gr

36 w
c8
0 -94 -94 0 0 94 94 0 6080 5644 5 MP
DP
gs 5875 5538 3769 1825 rc
gr

0 sg
6343 5986 mt 
(boost overlap_hist .08222009k) s
gs 5875 5538 3769 1825 rc
c9
360 0 5947 5944 2 MP stroke
gr

c9
0 -94 -94 0 0 94 94 0 6080 5897 5 MP
DP
gs 5875 5538 3769 1825 rc
gr

0 sg
6343 6239 mt 
(lp_p3 symm_diff lambda200.e6k) s
gs 5875 5538 3769 1825 rc
gr

c10
  60   60 6127 6197 FO
gs 5875 5538 3769 1825 rc
gr

0 sg
6343 6492 mt 
(lp_p3 symm_diff_mean_boundary T170delta2500k) s
gs 5875 5538 3769 1825 rc
gr

c11
  60   60 6127 6450 FO
gs 5875 5538 3769 1825 rc
gr

0 sg
6343 6746 mt 
(boost_lp_p3 overlap_area_boundary_hist 40.2.40.2k) s
gs 5875 5538 3769 1825 rc
gr

60 79 -60 79 -60 -79 60 -79 6127 6781 5 MP
c12
DP
gs 5875 5538 3769 1825 rc
gr

0 sg
6343 6999 mt 
(boost_lp_p3 overlap_area_boundary_interior_hist 30.2.40.2k) s
gs 5875 5538 3769 1825 rc
c13
360 0 5947 6955 2 MP stroke
gr

c13
60 79 -60 79 -60 -79 60 -79 6127 7034 5 MP
DP
gs 5875 5538 3769 1825 rc
gr

0 sg
6343 7252 mt 
(boost_lp_p3 overlap_hist_boundary_interior_hist 30.2.40.2k) s
gs 5875 5538 3769 1825 rc
360 0 5947 7208 2 MP stroke
gr

-35 -26 13 -41 -36 24 -35 -24 13 41 -35 26 43 0 14 41 
15 -41 43 0 6069 7189 11 MP
DP
gs 5875 5538 3769 1825 rc
6 w
gr

6 w
-630 253 3966 1084 2 MP stroke
73 -30 -129 4 3392 1363 3 MP
PP
56 26 73 -30 -129 4 3392 1363 4 MP stroke
-22 57 95 -87 3263 1367 3 MP
PP
-73 30 -22 57 95 -87 3263 1367 4 MP stroke
3967 1126 mt 
(Current operating point) s

end %%Color Dict

eplot
%%EndObject

epage
end

showpage

%%Trailer
%%EOF
