%!PS-Adobe-3.0 EPSF-3.0
%%Creator: MATLAB, The Mathworks, Inc. Version 7.8.0.347 (R2009a). Operating System: Linux 2.6.29.6-217.2.3.fc11.x86_64 #1 SMP Wed Jul 29 16:02:42 EDT 2009 x86_64.
%%Title: /opt/home/shiv/research/em_reconstruction/reconstructions/scripts/linkage_experiments/result_figures/link_eval_fly_larva_no_ua_edit_score_combined_f.eps
%%CreationDate: 10/14/2009  07:10:14
%%DocumentNeededFonts: Helvetica
%%+ Courier
%%DocumentProcessColors: Cyan Magenta Yellow Black
%%LanguageLevel: 2
%%Pages: 1
%%BoundingBox:    80   201   532   591
%%EndComments

%%BeginProlog
% MathWorks dictionary
/MathWorks 160 dict begin
% definition operators
/bdef {bind def} bind def
/ldef {load def} bind def
/xdef {exch def} bdef
/xstore {exch store} bdef
% operator abbreviations
/c  /clip ldef
/cc /concat ldef
/cp /closepath ldef
/gr /grestore ldef
/gs /gsave ldef
/mt /moveto ldef
/np /newpath ldef
/cm /currentmatrix ldef
/sm /setmatrix ldef
/rm /rmoveto ldef
/rl /rlineto ldef
/s {show newpath} bdef
/sc {setcmykcolor} bdef
/sr /setrgbcolor ldef
/sg /setgray ldef
/w /setlinewidth ldef
/j /setlinejoin ldef
/cap /setlinecap ldef
/rc {rectclip} bdef
/rf {rectfill} bdef
% page state control
/pgsv () def
/bpage {/pgsv save def} bdef
/epage {pgsv restore} bdef
/bplot /gsave ldef
/eplot {stroke grestore} bdef
% orientation switch
/portraitMode 0 def /landscapeMode 1 def /rotateMode 2 def
% coordinate system mappings
/dpi2point 0 def
% font control
/FontSize 0 def
/FMS {/FontSize xstore findfont [FontSize 0 0 FontSize neg 0 0]
  makefont setfont} bdef
/reencode {exch dup where {pop load} {pop StandardEncoding} ifelse
  exch dup 3 1 roll findfont dup length dict begin
  { 1 index /FID ne {def}{pop pop} ifelse } forall
  /Encoding exch def currentdict end definefont pop} bdef
/isroman {findfont /CharStrings get /Agrave known} bdef
/FMSR {3 1 roll 1 index dup isroman {reencode} {pop pop} ifelse
  exch FMS} bdef
/csm {1 dpi2point div -1 dpi2point div scale neg translate
 dup landscapeMode eq {pop -90 rotate}
  {rotateMode eq {90 rotate} if} ifelse} bdef
% line types: solid, dotted, dashed, dotdash
/SO { [] 0 setdash } bdef
/DO { [.5 dpi2point mul 4 dpi2point mul] 0 setdash } bdef
/DA { [6 dpi2point mul] 0 setdash } bdef
/DD { [.5 dpi2point mul 4 dpi2point mul 6 dpi2point mul 4
  dpi2point mul] 0 setdash } bdef
% macros for lines and objects
/L {lineto stroke} bdef
/MP {3 1 roll moveto 1 sub {rlineto} repeat} bdef
/AP {{rlineto} repeat} bdef
/PDlw -1 def
/W {/PDlw currentlinewidth def setlinewidth} def
/PP {closepath eofill} bdef
/DP {closepath stroke} bdef
/MR {4 -2 roll moveto dup  0 exch rlineto exch 0 rlineto
  neg 0 exch rlineto closepath} bdef
/FR {MR stroke} bdef
/PR {MR fill} bdef
/L1i {{currentfile picstr readhexstring pop} image} bdef
/tMatrix matrix def
/MakeOval {newpath tMatrix currentmatrix pop translate scale
0 0 1 0 360 arc tMatrix setmatrix} bdef
/FO {MakeOval stroke} bdef
/PO {MakeOval fill} bdef
/PD {currentlinewidth 2 div 0 360 arc fill
   PDlw -1 eq not {PDlw w /PDlw -1 def} if} def
/FA {newpath tMatrix currentmatrix pop translate scale
  0 0 1 5 -2 roll arc tMatrix setmatrix stroke} bdef
/PA {newpath tMatrix currentmatrix pop	translate 0 0 moveto scale
  0 0 1 5 -2 roll arc closepath tMatrix setmatrix fill} bdef
/FAn {newpath tMatrix currentmatrix pop translate scale
  0 0 1 5 -2 roll arcn tMatrix setmatrix stroke} bdef
/PAn {newpath tMatrix currentmatrix pop translate 0 0 moveto scale
  0 0 1 5 -2 roll arcn closepath tMatrix setmatrix fill} bdef
/vradius 0 def /hradius 0 def /lry 0 def
/lrx 0 def /uly 0 def /ulx 0 def /rad 0 def
/MRR {/vradius xdef /hradius xdef /lry xdef /lrx xdef /uly xdef
  /ulx xdef newpath tMatrix currentmatrix pop ulx hradius add uly
  vradius add translate hradius vradius scale 0 0 1 180 270 arc 
  tMatrix setmatrix lrx hradius sub uly vradius add translate
  hradius vradius scale 0 0 1 270 360 arc tMatrix setmatrix
  lrx hradius sub lry vradius sub translate hradius vradius scale
  0 0 1 0 90 arc tMatrix setmatrix ulx hradius add lry vradius sub
  translate hradius vradius scale 0 0 1 90 180 arc tMatrix setmatrix
  closepath} bdef
/FRR {MRR stroke } bdef
/PRR {MRR fill } bdef
/MlrRR {/lry xdef /lrx xdef /uly xdef /ulx xdef /rad lry uly sub 2 div def
  newpath tMatrix currentmatrix pop ulx rad add uly rad add translate
  rad rad scale 0 0 1 90 270 arc tMatrix setmatrix lrx rad sub lry rad
  sub translate rad rad scale 0 0 1 270 90 arc tMatrix setmatrix
  closepath} bdef
/FlrRR {MlrRR stroke } bdef
/PlrRR {MlrRR fill } bdef
/MtbRR {/lry xdef /lrx xdef /uly xdef /ulx xdef /rad lrx ulx sub 2 div def
  newpath tMatrix currentmatrix pop ulx rad add uly rad add translate
  rad rad scale 0 0 1 180 360 arc tMatrix setmatrix lrx rad sub lry rad
  sub translate rad rad scale 0 0 1 0 180 arc tMatrix setmatrix
  closepath} bdef
/FtbRR {MtbRR stroke } bdef
/PtbRR {MtbRR fill } bdef
/stri 6 array def /dtri 6 array def
/smat 6 array def /dmat 6 array def
/tmat1 6 array def /tmat2 6 array def /dif 3 array def
/asub {/ind2 exch def /ind1 exch def dup dup
  ind1 get exch ind2 get sub exch } bdef
/tri_to_matrix {
  2 0 asub 3 1 asub 4 0 asub 5 1 asub
  dup 0 get exch 1 get 7 -1 roll astore } bdef
/compute_transform {
  dmat dtri tri_to_matrix tmat1 invertmatrix 
  smat stri tri_to_matrix tmat2 concatmatrix } bdef
/ds {stri astore pop} bdef
/dt {dtri astore pop} bdef
/db {2 copy /cols xdef /rows xdef mul dup 3 mul string
  currentfile 
  3 index 0 eq {/ASCIIHexDecode filter}
  {/ASCII85Decode filter 3 index 2 eq {/RunLengthDecode filter} if }
  ifelse exch readstring pop
  dup 0 3 index getinterval /rbmap xdef
  dup 2 index dup getinterval /gbmap xdef
  1 index dup 2 mul exch getinterval /bbmap xdef pop pop}bdef
/it {gs np dtri aload pop moveto lineto lineto cp c
  cols rows 8 compute_transform 
  rbmap gbmap bbmap true 3 colorimage gr}bdef
/il {newpath moveto lineto stroke}bdef
currentdict end def
%%EndProlog

%%BeginSetup
MathWorks begin

0 cap

end
%%EndSetup

%%Page: 1 1
%%BeginPageSetup
%%PageBoundingBox:    80   201   532   591
MathWorks begin
bpage
%%EndPageSetup

%%BeginObject: obj1
bplot

/dpi2point 12 def
portraitMode 0960 7092 csm

    0     0  5424  4675 rc
87 dict begin %Colortable dictionary
/c0 { 0.000000 0.000000 0.000000 sr} bdef
/c1 { 1.000000 1.000000 1.000000 sr} bdef
/c2 { 0.900000 0.000000 0.000000 sr} bdef
/c3 { 0.000000 0.820000 0.000000 sr} bdef
/c4 { 0.000000 0.000000 0.800000 sr} bdef
/c5 { 0.910000 0.820000 0.320000 sr} bdef
/c6 { 1.000000 0.260000 0.820000 sr} bdef
/c7 { 0.000000 0.820000 0.820000 sr} bdef
c0
1 j
1 sg
   0    0 5425 4676 rf
6 w
0 4021 4920 0 0 -4021 446 4287 4 MP
PP
-4920 0 0 4021 4920 0 0 -4021 446 4287 5 MP stroke
4 w
DO
SO
6 w
0 sg
 446 4287 mt 5366 4287 L
 446  266 mt 5366  266 L
 446 4287 mt  446  266 L
5366 4287 mt 5366  266 L
 446 4287 mt 5366 4287 L
 446 4287 mt  446  266 L
 446 4287 mt  446 4237 L
 446  267 mt  446  316 L
%%IncludeResource: font Helvetica
/Helvetica /ISOLatin1Encoding 120 FMSR

 413 4432 mt 
(0) s
 938 4287 mt  938 4237 L
 938  267 mt  938  316 L
 872 4432 mt 
(10) s
1430 4287 mt 1430 4237 L
1430  267 mt 1430  316 L
1364 4432 mt 
(20) s
1922 4287 mt 1922 4237 L
1922  267 mt 1922  316 L
1856 4432 mt 
(30) s
2414 4287 mt 2414 4237 L
2414  267 mt 2414  316 L
2348 4432 mt 
(40) s
2906 4287 mt 2906 4237 L
2906  267 mt 2906  316 L
2840 4432 mt 
(50) s
3398 4287 mt 3398 4237 L
3398  267 mt 3398  316 L
3332 4432 mt 
(60) s
3890 4287 mt 3890 4237 L
3890  267 mt 3890  316 L
3824 4432 mt 
(70) s
4382 4287 mt 4382 4237 L
4382  267 mt 4382  316 L
4316 4432 mt 
(80) s
4874 4287 mt 4874 4237 L
4874  267 mt 4874  316 L
4808 4432 mt 
(90) s
5366 4287 mt 5366 4237 L
5366  267 mt 5366  316 L
5266 4432 mt 
(100) s
 446 4287 mt  495 4287 L
5366 4287 mt 5316 4287 L
 345 4331 mt 
(0) s
 446 3784 mt  495 3784 L
5366 3784 mt 5316 3784 L
 211 3828 mt 
(100) s
 446 3282 mt  495 3282 L
5366 3282 mt 5316 3282 L
 211 3326 mt 
(200) s
 446 2779 mt  495 2779 L
5366 2779 mt 5316 2779 L
 211 2823 mt 
(300) s
 446 2432 mt  495 2432 L
5366 2432 mt 5316 2432 L
 211 2476 mt 
(369) s
 446 2277 mt  495 2277 L
5366 2277 mt 5316 2277 L
 211 2321 mt 
(400) s
 446 2060 mt  495 2060 L
5366 2060 mt 5316 2060 L
 211 2104 mt 
(443) s
 446 1774 mt  495 1774 L
5366 1774 mt 5316 1774 L
 211 1818 mt 
(500) s
 446 1272 mt  495 1272 L
5366 1272 mt 5316 1272 L
 211 1316 mt 
(600) s
 446  769 mt  495  769 L
5366  769 mt 5316  769 L
 211  813 mt 
(700) s
 446  267 mt  495  267 L
5366  267 mt 5316  267 L
 211  311 mt 
(800) s
 446 4287 mt 5366 4287 L
 446  266 mt 5366  266 L
 446 4287 mt  446  266 L
5366 4287 mt 5366  266 L
gs 446 267 4921 4021 rc
36 w
/c8 { 0.000000 0.000000 1.000000 sr} bdef
c8
-67 -211 -50 -211 -295 -296 0 -151 -197 -236 -147 -236 -295 -136 -788 -75 
-836 -186 -1525 -181 -592 -82 5367 2268 12 MP stroke
gr

36 w
c8
0 j
0 -94 -94 0 0 94 94 0 4728 2139 5 MP
DP
0 -94 -94 0 0 94 94 0 3203 1958 5 MP
DP
0 -94 -94 0 0 94 94 0 2367 1772 5 MP
DP
0 -94 -94 0 0 94 94 0 1579 1697 5 MP
DP
0 -94 -94 0 0 94 94 0 1284 1561 5 MP
DP
0 -94 -94 0 0 94 94 0 1137 1325 5 MP
DP
0 -94 -94 0 0 94 94 0 940 1089 5 MP
DP
0 -94 -94 0 0 94 94 0 940 938 5 MP
DP
0 -94 -94 0 0 94 94 0 645 642 5 MP
DP
0 -94 -94 0 0 94 94 0 595 431 5 MP
DP
gs 446 267 4921 4021 rc
gr

0 sg
%%IncludeResource: font Courier
/Courier /ISOLatin1Encoding 216 FMSR

1285 4612 mt 
(number of required splits) s
 123 3963 mt  -90 rotate
(number of required mergers) s
90 rotate
 896  166 mt 
(Linkage evaluation - edit score) s
%%IncludeResource: font Helvetica
/Helvetica /ISOLatin1Encoding 120 FMSR

 429 4330 mt 
( ) s
5350  309 mt 
( ) s
gs 446 267 4921 4021 rc
/c9 { 1.000000 0.000000 0.000000 sr} bdef
c9
-50 -121 -147 -155 -246 -141 -197 -90 -148 -106 -295 -105 -197 -151 -295 -76 
-393 -115 -542 -96 -688 -65 -394 -95 -1133 -68 5367 2937 14 MP stroke
gr

c9
-69 119 -69 -119 138 0 4165 2909 4 MP
DP
-69 119 -69 -119 138 0 3771 2814 4 MP
DP
-69 119 -69 -119 138 0 3083 2749 4 MP
DP
-69 119 -69 -119 138 0 2541 2653 4 MP
DP
-69 119 -69 -119 138 0 2148 2538 4 MP
DP
-69 119 -69 -119 138 0 1853 2462 4 MP
DP
-69 119 -69 -119 138 0 1656 2311 4 MP
DP
-69 119 -69 -119 138 0 1361 2206 4 MP
DP
-69 119 -69 -119 138 0 1213 2100 4 MP
DP
-69 119 -69 -119 138 0 1016 2010 4 MP
DP
-69 119 -69 -119 138 0 770 1869 4 MP
DP
-69 119 -69 -119 138 0 623 1714 4 MP
DP
-69 119 -69 -119 138 0 573 1593 4 MP
DP
gs 446 267 4921 4021 rc
/c10 { 0.000000 1.000000 0.000000 sr} bdef
c10
738 498 492 427 197 75 98 382 1036 1975 5 MP stroke
gr

c10
  60   60 1036 1975 FO
  60   60 1134 2357 FO
  60   60 1331 2432 FO
  60   60 1823 2859 FO
  60   60 2561 3357 FO
gs 446 267 4921 4021 rc
/c11 { 1.000000 0.000000 1.000000 sr} bdef
c11
738 428 492 547 741 915 3 MP stroke
gr

c11
60 79 -60 79 -60 -79 60 -79 741 994 5 MP
DP
60 79 -60 79 -60 -79 60 -79 1233 1541 5 MP
DP
60 79 -60 79 -60 -79 60 -79 1971 1969 5 MP
DP
gs 446 267 4921 4021 rc
DA
6 w
0 sg
4921 0 446 2432 2 MP stroke
4921 0 446 2060 2 MP stroke
0 -4020 1331 4287 2 MP stroke
SO
gr

6 w
0 sg
1 sg
0 1092 4134 0 0 -1092 1231 1353 4 MP
PP
-4134 0 0 1092 4134 0 0 -1092 1231 1353 5 MP stroke
4 w
DO
SO
6 w
0 sg
1231 1353 mt 5365 1353 L
1231  261 mt 5365  261 L
1231 1353 mt 1231  261 L
5365 1353 mt 5365  261 L
1231 1353 mt 5365 1353 L
1231 1353 mt 1231  261 L
1231 1353 mt 5365 1353 L
1231  261 mt 5365  261 L
1231 1353 mt 1231  261 L
5365 1353 mt 5365  261 L
%%IncludeResource: font Courier
/Courier /ISOLatin1Encoding 168 FMSR

2069  479 mt 
(overlap_area+boost) s
gs 1231 261 4135 1093 rc
36 w
c8
645 0 1359 424 2 MP stroke
gs 1524 266 317 317 rc
0 -94 -94 0 0 94 94 0 1635 377 5 MP
DP
gr

gr

36 w
c8
0 sg
2069  735 mt 
(intensity hist.+boost) s
gs 1231 261 4135 1093 rc
c9
645 0 1359 679 2 MP stroke
gs 1524 521 317 317 rc
-69 119 -69 -119 138 0 1613 719 4 MP
DP
gr

gr

c9
0 sg
2069  990 mt 
(int. hist.+boost+co-cluster\(LP\)) s
gs 1231 261 4135 1093 rc
c10
645 0 1359 934 2 MP stroke
gs 1524 776 317 317 rc
  60   60 1682  934 FO
gr

gr

c10
0 sg
2069 1246 mt 
(symm. diff.+co-cluster\(LP\)) s
gs 1231 261 4135 1093 rc
c11
645 0 1359 1189 2 MP stroke
gs 1524 1031 317 317 rc
60 79 -60 79 -60 -79 60 -79 1682 1268 5 MP
DP
gr

6 w
gr

6 w
c11

end %%Color Dict

eplot
%%EndObject

epage
end

showpage

%%Trailer
%%EOF
