%!PS-Adobe-3.0 EPSF-3.0
%%Creator: MATLAB, The Mathworks, Inc. Version 7.8.0.347 (R2009a). Operating System: Linux 2.6.29.6-217.2.3.fc11.x86_64 #1 SMP Wed Jul 29 16:02:42 EDT 2009 x86_64.
%%Title: /opt/home/shiv/research/em_reconstruction/reconstructions/scripts/linkage_experiments/result_figures/linkage_exp_fly_larva_no_ua_s_segment_rand_sdp_vs_lp.eps
%%CreationDate: 10/20/2009  05:41:54
%%DocumentNeededFonts: Helvetica
%%+ Courier
%%DocumentProcessColors: Cyan Magenta Yellow Black
%%LanguageLevel: 2
%%Pages: 1
%%BoundingBox:    78   238   533   554
%%EndComments

%%BeginProlog
% MathWorks dictionary
/MathWorks 160 dict begin
% definition operators
/bdef {bind def} bind def
/ldef {load def} bind def
/xdef {exch def} bdef
/xstore {exch store} bdef
% operator abbreviations
/c  /clip ldef
/cc /concat ldef
/cp /closepath ldef
/gr /grestore ldef
/gs /gsave ldef
/mt /moveto ldef
/np /newpath ldef
/cm /currentmatrix ldef
/sm /setmatrix ldef
/rm /rmoveto ldef
/rl /rlineto ldef
/s {show newpath} bdef
/sc {setcmykcolor} bdef
/sr /setrgbcolor ldef
/sg /setgray ldef
/w /setlinewidth ldef
/j /setlinejoin ldef
/cap /setlinecap ldef
/rc {rectclip} bdef
/rf {rectfill} bdef
% page state control
/pgsv () def
/bpage {/pgsv save def} bdef
/epage {pgsv restore} bdef
/bplot /gsave ldef
/eplot {stroke grestore} bdef
% orientation switch
/portraitMode 0 def /landscapeMode 1 def /rotateMode 2 def
% coordinate system mappings
/dpi2point 0 def
% font control
/FontSize 0 def
/FMS {/FontSize xstore findfont [FontSize 0 0 FontSize neg 0 0]
  makefont setfont} bdef
/reencode {exch dup where {pop load} {pop StandardEncoding} ifelse
  exch dup 3 1 roll findfont dup length dict begin
  { 1 index /FID ne {def}{pop pop} ifelse } forall
  /Encoding exch def currentdict end definefont pop} bdef
/isroman {findfont /CharStrings get /Agrave known} bdef
/FMSR {3 1 roll 1 index dup isroman {reencode} {pop pop} ifelse
  exch FMS} bdef
/csm {1 dpi2point div -1 dpi2point div scale neg translate
 dup landscapeMode eq {pop -90 rotate}
  {rotateMode eq {90 rotate} if} ifelse} bdef
% line types: solid, dotted, dashed, dotdash
/SO { [] 0 setdash } bdef
/DO { [.5 dpi2point mul 4 dpi2point mul] 0 setdash } bdef
/DA { [6 dpi2point mul] 0 setdash } bdef
/DD { [.5 dpi2point mul 4 dpi2point mul 6 dpi2point mul 4
  dpi2point mul] 0 setdash } bdef
% macros for lines and objects
/L {lineto stroke} bdef
/MP {3 1 roll moveto 1 sub {rlineto} repeat} bdef
/AP {{rlineto} repeat} bdef
/PDlw -1 def
/W {/PDlw currentlinewidth def setlinewidth} def
/PP {closepath eofill} bdef
/DP {closepath stroke} bdef
/MR {4 -2 roll moveto dup  0 exch rlineto exch 0 rlineto
  neg 0 exch rlineto closepath} bdef
/FR {MR stroke} bdef
/PR {MR fill} bdef
/L1i {{currentfile picstr readhexstring pop} image} bdef
/tMatrix matrix def
/MakeOval {newpath tMatrix currentmatrix pop translate scale
0 0 1 0 360 arc tMatrix setmatrix} bdef
/FO {MakeOval stroke} bdef
/PO {MakeOval fill} bdef
/PD {currentlinewidth 2 div 0 360 arc fill
   PDlw -1 eq not {PDlw w /PDlw -1 def} if} def
/FA {newpath tMatrix currentmatrix pop translate scale
  0 0 1 5 -2 roll arc tMatrix setmatrix stroke} bdef
/PA {newpath tMatrix currentmatrix pop	translate 0 0 moveto scale
  0 0 1 5 -2 roll arc closepath tMatrix setmatrix fill} bdef
/FAn {newpath tMatrix currentmatrix pop translate scale
  0 0 1 5 -2 roll arcn tMatrix setmatrix stroke} bdef
/PAn {newpath tMatrix currentmatrix pop translate 0 0 moveto scale
  0 0 1 5 -2 roll arcn closepath tMatrix setmatrix fill} bdef
/vradius 0 def /hradius 0 def /lry 0 def
/lrx 0 def /uly 0 def /ulx 0 def /rad 0 def
/MRR {/vradius xdef /hradius xdef /lry xdef /lrx xdef /uly xdef
  /ulx xdef newpath tMatrix currentmatrix pop ulx hradius add uly
  vradius add translate hradius vradius scale 0 0 1 180 270 arc 
  tMatrix setmatrix lrx hradius sub uly vradius add translate
  hradius vradius scale 0 0 1 270 360 arc tMatrix setmatrix
  lrx hradius sub lry vradius sub translate hradius vradius scale
  0 0 1 0 90 arc tMatrix setmatrix ulx hradius add lry vradius sub
  translate hradius vradius scale 0 0 1 90 180 arc tMatrix setmatrix
  closepath} bdef
/FRR {MRR stroke } bdef
/PRR {MRR fill } bdef
/MlrRR {/lry xdef /lrx xdef /uly xdef /ulx xdef /rad lry uly sub 2 div def
  newpath tMatrix currentmatrix pop ulx rad add uly rad add translate
  rad rad scale 0 0 1 90 270 arc tMatrix setmatrix lrx rad sub lry rad
  sub translate rad rad scale 0 0 1 270 90 arc tMatrix setmatrix
  closepath} bdef
/FlrRR {MlrRR stroke } bdef
/PlrRR {MlrRR fill } bdef
/MtbRR {/lry xdef /lrx xdef /uly xdef /ulx xdef /rad lrx ulx sub 2 div def
  newpath tMatrix currentmatrix pop ulx rad add uly rad add translate
  rad rad scale 0 0 1 180 360 arc tMatrix setmatrix lrx rad sub lry rad
  sub translate rad rad scale 0 0 1 0 180 arc tMatrix setmatrix
  closepath} bdef
/FtbRR {MtbRR stroke } bdef
/PtbRR {MtbRR fill } bdef
/stri 6 array def /dtri 6 array def
/smat 6 array def /dmat 6 array def
/tmat1 6 array def /tmat2 6 array def /dif 3 array def
/asub {/ind2 exch def /ind1 exch def dup dup
  ind1 get exch ind2 get sub exch } bdef
/tri_to_matrix {
  2 0 asub 3 1 asub 4 0 asub 5 1 asub
  dup 0 get exch 1 get 7 -1 roll astore } bdef
/compute_transform {
  dmat dtri tri_to_matrix tmat1 invertmatrix 
  smat stri tri_to_matrix tmat2 concatmatrix } bdef
/ds {stri astore pop} bdef
/dt {dtri astore pop} bdef
/db {2 copy /cols xdef /rows xdef mul dup 3 mul string
  currentfile 
  3 index 0 eq {/ASCIIHexDecode filter}
  {/ASCII85Decode filter 3 index 2 eq {/RunLengthDecode filter} if }
  ifelse exch readstring pop
  dup 0 3 index getinterval /rbmap xdef
  dup 2 index dup getinterval /gbmap xdef
  1 index dup 2 mul exch getinterval /bbmap xdef pop pop}bdef
/it {gs np dtri aload pop moveto lineto lineto cp c
  cols rows 8 compute_transform 
  rbmap gbmap bbmap true 3 colorimage gr}bdef
/il {newpath moveto lineto stroke}bdef
currentdict end def
%%EndProlog

%%BeginSetup
MathWorks begin

0 cap

end
%%EndSetup

%%Page: 1 1
%%BeginPageSetup
%%PageBoundingBox:    78   238   533   554
MathWorks begin
bpage
%%EndPageSetup

%%BeginObject: obj1
bplot

/dpi2point 12 def
portraitMode 0936 6648 csm

    0     0  5463  3792 rc
86 dict begin %Colortable dictionary
/c0 { 0.000000 0.000000 0.000000 sr} bdef
/c1 { 1.000000 1.000000 1.000000 sr} bdef
/c2 { 0.900000 0.000000 0.000000 sr} bdef
/c3 { 0.000000 0.820000 0.000000 sr} bdef
/c4 { 0.000000 0.000000 0.800000 sr} bdef
/c5 { 0.910000 0.820000 0.320000 sr} bdef
/c6 { 1.000000 0.260000 0.820000 sr} bdef
/c7 { 0.000000 0.820000 0.820000 sr} bdef
c0
1 j
1 sg
   0    0 5464 3793 rf
6 w
0 3207 4686 0 0 -3207 739 3274 4 MP
PP
-4686 0 0 3207 4686 0 0 -3207 739 3274 5 MP stroke
4 w
DO
SO
6 w
0 sg
 739 3274 mt 5425 3274 L
 739   67 mt 5425   67 L
 739 3274 mt  739   67 L
5425 3274 mt 5425   67 L
 739 3274 mt 5425 3274 L
 739 3274 mt  739   67 L
 739 3274 mt  739 3227 L
 739   67 mt  739  113 L
%%IncludeResource: font Courier
/Courier /ISOLatin1Encoding 216 FMSR

 675 3481 mt 
(0) s
1780 3274 mt 1780 3227 L
1780   67 mt 1780  113 L
1716 3481 mt 
(2) s
2821 3274 mt 2821 3227 L
2821   67 mt 2821  113 L
2757 3481 mt 
(4) s
3863 3274 mt 3863 3227 L
3863   67 mt 3863  113 L
3799 3481 mt 
(6) s
4904 3274 mt 4904 3227 L
4904   67 mt 4904  113 L
4840 3481 mt 
(8) s
4821 3765 mt 
(x 10) s
%%IncludeResource: font Courier
/Courier /ISOLatin1Encoding 144 FMSR

5339 3650 mt 
(4) s
 739 3274 mt  785 3274 L
5425 3274 mt 5378 3274 L
%%IncludeResource: font Courier
/Courier /ISOLatin1Encoding 216 FMSR

 575 3343 mt 
(0) s
 739 2873 mt  785 2873 L
5425 2873 mt 5378 2873 L
 316 2942 mt 
(500) s
 739 2472 mt  785 2472 L
5425 2472 mt 5378 2472 L
 186 2541 mt 
(1000) s
 739 2071 mt  785 2071 L
5425 2071 mt 5378 2071 L
 186 2140 mt 
(1500) s
 739 1670 mt  785 1670 L
5425 1670 mt 5378 1670 L
 186 1739 mt 
(2000) s
 739 1269 mt  785 1269 L
5425 1269 mt 5378 1269 L
 186 1338 mt 
(2500) s
 739  868 mt  785  868 L
5425  868 mt 5378  868 L
 186  937 mt 
(3000) s
 739  467 mt  785  467 L
5425  467 mt 5378  467 L
 186  536 mt 
(3500) s
 739   67 mt  785   67 L
5425   67 mt 5378   67 L
 186  136 mt 
(4000) s
 739 3274 mt 5425 3274 L
 739   67 mt 5425   67 L
 739 3274 mt  739   67 L
5425 3274 mt 5425   67 L
1331 3661 mt 
(Number of false merge pairs) s
 125 3511 mt  -90 rotate
(Number of false split pairs) s
90 rotate
%%IncludeResource: font Helvetica
/Helvetica /ISOLatin1Encoding 120 FMSR

 722 3317 mt 
( ) s
5409  109 mt 
( ) s
gs 739 67 4687 3208 rc
36 w
/c8 { 0.000000 0.000000 1.000000 sr} bdef
c8
-360 -1667 -756 -1010 -1527 -337 -1508 -159 -392 -33 -30 -1 -9 0 5356 3274 8 MP stroke
gr

36 w
c8
5296 3274 mt 5416 3274 L
5356 3214 mt 5356 3334 L
5287 3274 mt 5407 3274 L
5347 3214 mt 5347 3334 L
5257 3273 mt 5377 3273 L
5317 3213 mt 5317 3333 L
4865 3240 mt 4985 3240 L
4925 3180 mt 4925 3300 L
3357 3081 mt 3477 3081 L
3417 3021 mt 3417 3141 L
1830 2744 mt 1950 2744 L
1890 2684 mt 1890 2804 L
1074 1734 mt 1194 1734 L
1134 1674 mt 1134 1794 L
gs 739 67 4687 3208 rc
gr

0 j
-69 119 -69 -119 138 0 679 1866 4 MP
/c9 { 0.000000 1.000000 0.000000 sr} bdef
c9
DP
gs 739 67 4687 3208 rc
c8
-137 -1248 -931 -934 -1287 -535 -1508 -257 -643 -212 -93 -21 5356 3274 7 MP stroke
gr

c8
5296 3274 mt 5416 3274 L
5356 3214 mt 5356 3334 L
5203 3253 mt 5323 3253 L
5263 3193 mt 5263 3313 L
4560 3041 mt 4680 3041 L
4620 2981 mt 4620 3101 L
3052 2784 mt 3172 2784 L
3112 2724 mt 3112 2844 L
1765 2249 mt 1885 2249 L
1825 2189 mt 1825 2309 L
 834 1315 mt  954 1315 L
 894 1255 mt  894 1375 L
gs 739 67 4687 3208 rc
gr

-69 119 -69 -119 138 0 679 1782 4 MP
c9
DP
gs 739 67 4687 3208 rc
gr

-69 119 -69 -119 138 0 678 1526 4 MP
DP
gs 739 67 4687 3208 rc
744 1418 PD
gr

-69 119 -69 -119 138 0 675 1458 4 MP
DP
gs 739 67 4687 3208 rc
gr

-69 119 -69 -119 138 0 673 1377 4 MP
DP
gs 739 67 4687 3208 rc
gr

-69 119 -69 -119 138 0 673 1284 4 MP
DP
gs 739 67 4687 3208 rc
c8
-154 -943 -2039 -1628 -1010 -347 -1003 -183 -302 -101 -82 -5 5356 3274 7 MP stroke
gr

c8
5296 3274 mt 5416 3274 L
5356 3214 mt 5356 3334 L
5214 3269 mt 5334 3269 L
5274 3209 mt 5274 3329 L
4912 3168 mt 5032 3168 L
4972 3108 mt 4972 3228 L
3909 2985 mt 4029 2985 L
3969 2925 mt 3969 3045 L
2899 2638 mt 3019 2638 L
2959 2578 mt 2959 2698 L
 860 1010 mt  980 1010 L
 920  950 mt  920 1070 L
gs 739 67 4687 3208 rc
-734 -1559 -1051 -784 -975 -519 -1473 -305 -261 -33 -46 -7 5356 3274 7 MP stroke
gr

5296 3274 mt 5416 3274 L
5356 3214 mt 5356 3334 L
5250 3267 mt 5370 3267 L
5310 3207 mt 5310 3327 L
4989 3234 mt 5109 3234 L
5049 3174 mt 5049 3294 L
3516 2929 mt 3636 2929 L
3576 2869 mt 3576 2989 L
2541 2410 mt 2661 2410 L
2601 2350 mt 2601 2470 L
1490 1626 mt 1610 1626 L
1550 1566 mt 1550 1686 L
gs 739 67 4687 3208 rc
-609 -1101 -1902 -1405 -821 -540 -752 -82 -370 -75 -72 -4 5356 3274 7 MP stroke
gr

5296 3274 mt 5416 3274 L
5356 3214 mt 5356 3334 L
5224 3270 mt 5344 3270 L
5284 3210 mt 5284 3330 L
4854 3195 mt 4974 3195 L
4914 3135 mt 4914 3255 L
4102 3113 mt 4222 3113 L
4162 3053 mt 4162 3173 L
3281 2573 mt 3401 2573 L
3341 2513 mt 3341 2633 L
1379 1168 mt 1499 1168 L
1439 1108 mt 1439 1228 L
gs 739 67 4687 3208 rc
-672 -1290 -1453 -1225 -882 -343 -1115 -203 -315 -127 -94 -19 5356 3274 7 MP stroke
gr

5296 3274 mt 5416 3274 L
5356 3214 mt 5356 3334 L
5202 3255 mt 5322 3255 L
5262 3195 mt 5262 3315 L
4887 3128 mt 5007 3128 L
4947 3068 mt 4947 3188 L
3772 2925 mt 3892 2925 L
3832 2865 mt 3832 2985 L
2890 2582 mt 3010 2582 L
2950 2522 mt 2950 2642 L
1437 1357 mt 1557 1357 L
1497 1297 mt 1497 1417 L
gs 739 67 4687 3208 rc
-635 -1348 -1416 -1040 -817 -379 -1162 -314 -399 -110 -111 -16 5356 3274 7 MP stroke
gr

5296 3274 mt 5416 3274 L
5356 3214 mt 5356 3334 L
5185 3258 mt 5305 3258 L
5245 3198 mt 5245 3318 L
4786 3148 mt 4906 3148 L
4846 3088 mt 4846 3208 L
3624 2834 mt 3744 2834 L
3684 2774 mt 3684 2894 L
2807 2455 mt 2927 2455 L
2867 2395 mt 2867 2515 L
1391 1415 mt 1511 1415 L
1451 1355 mt 1451 1475 L
gs 739 67 4687 3208 rc
-662 -1317 -1359 -1003 -902 -407 -1137 -374 -289 -69 -185 -37 5356 3274 7 MP stroke
gr

5296 3274 mt 5416 3274 L
5356 3214 mt 5356 3334 L
5111 3237 mt 5231 3237 L
5171 3177 mt 5171 3297 L
4822 3168 mt 4942 3168 L
4882 3108 mt 4882 3228 L
3685 2794 mt 3805 2794 L
3745 2734 mt 3745 2854 L
2783 2387 mt 2903 2387 L
2843 2327 mt 2843 2447 L
1424 1384 mt 1544 1384 L
1484 1324 mt 1484 1444 L
gs 739 67 4687 3208 rc
6 w
gr

6 w
1 sg
0 470 2975 0 0 -470 2092 857 4 MP
PP
-2975 0 0 470 2975 0 0 -470 2092 857 5 MP stroke
4 w
DO
SO
6 w
0 sg
2092  857 mt 5067  857 L
2092  387 mt 5067  387 L
2092  857 mt 2092  387 L
5067  857 mt 5067  387 L
2092  857 mt 5067  857 L
2092  857 mt 2092  387 L
2092  857 mt 5067  857 L
2092  387 mt 5067  387 L
2092  857 mt 2092  387 L
5067  857 mt 5067  387 L
%%IncludeResource: font Courier
/Courier /ISOLatin1Encoding 216 FMSR

3140  589 mt 
(co-cluster SDP) s
gs 2092 387 2976 471 rc
36 w
c8
805 0 2253 518 2 MP stroke
gr

36 w
c8
2595  518 mt 2715  518 L
2655  458 mt 2655  578 L
gs 2092 387 2976 471 rc
gr

0 sg
3140  796 mt 
(co-cluster LP) s
gs 2092 387 2976 471 rc
gr

-69 119 -69 -119 138 0 2586 765 4 MP
c9
DP
gs 2092 387 2976 471 rc
6 w
gr

6 w

end %%Color Dict

eplot
%%EndObject

epage
end

showpage

%%Trailer
%%EOF
