%!PS-Adobe-3.0 EPSF-3.0
%%Creator: MATLAB, The Mathworks, Inc. Version 7.8.0.347 (R2009a). Operating System: Linux 2.6.29.6-217.2.3.fc11.x86_64 #1 SMP Wed Jul 29 16:02:42 EDT 2009 x86_64.
%%Title: /opt/home/shiv/research/em_reconstruction/reconstructions/scripts/linkage_experiments/result_figures/link_eval_fly_larva_no_ua_seg_rand_combined_f.eps
%%CreationDate: 10/14/2009  07:17:00
%%DocumentNeededFonts: Helvetica
%%+ Courier
%%DocumentProcessColors: Cyan Magenta Yellow Black
%%LanguageLevel: 2
%%Pages: 1
%%BoundingBox:    81   207   529   584
%%EndComments

%%BeginProlog
% MathWorks dictionary
/MathWorks 160 dict begin
% definition operators
/bdef {bind def} bind def
/ldef {load def} bind def
/xdef {exch def} bdef
/xstore {exch store} bdef
% operator abbreviations
/c  /clip ldef
/cc /concat ldef
/cp /closepath ldef
/gr /grestore ldef
/gs /gsave ldef
/mt /moveto ldef
/np /newpath ldef
/cm /currentmatrix ldef
/sm /setmatrix ldef
/rm /rmoveto ldef
/rl /rlineto ldef
/s {show newpath} bdef
/sc {setcmykcolor} bdef
/sr /setrgbcolor ldef
/sg /setgray ldef
/w /setlinewidth ldef
/j /setlinejoin ldef
/cap /setlinecap ldef
/rc {rectclip} bdef
/rf {rectfill} bdef
% page state control
/pgsv () def
/bpage {/pgsv save def} bdef
/epage {pgsv restore} bdef
/bplot /gsave ldef
/eplot {stroke grestore} bdef
% orientation switch
/portraitMode 0 def /landscapeMode 1 def /rotateMode 2 def
% coordinate system mappings
/dpi2point 0 def
% font control
/FontSize 0 def
/FMS {/FontSize xstore findfont [FontSize 0 0 FontSize neg 0 0]
  makefont setfont} bdef
/reencode {exch dup where {pop load} {pop StandardEncoding} ifelse
  exch dup 3 1 roll findfont dup length dict begin
  { 1 index /FID ne {def}{pop pop} ifelse } forall
  /Encoding exch def currentdict end definefont pop} bdef
/isroman {findfont /CharStrings get /Agrave known} bdef
/FMSR {3 1 roll 1 index dup isroman {reencode} {pop pop} ifelse
  exch FMS} bdef
/csm {1 dpi2point div -1 dpi2point div scale neg translate
 dup landscapeMode eq {pop -90 rotate}
  {rotateMode eq {90 rotate} if} ifelse} bdef
% line types: solid, dotted, dashed, dotdash
/SO { [] 0 setdash } bdef
/DO { [.5 dpi2point mul 4 dpi2point mul] 0 setdash } bdef
/DA { [6 dpi2point mul] 0 setdash } bdef
/DD { [.5 dpi2point mul 4 dpi2point mul 6 dpi2point mul 4
  dpi2point mul] 0 setdash } bdef
% macros for lines and objects
/L {lineto stroke} bdef
/MP {3 1 roll moveto 1 sub {rlineto} repeat} bdef
/AP {{rlineto} repeat} bdef
/PDlw -1 def
/W {/PDlw currentlinewidth def setlinewidth} def
/PP {closepath eofill} bdef
/DP {closepath stroke} bdef
/MR {4 -2 roll moveto dup  0 exch rlineto exch 0 rlineto
  neg 0 exch rlineto closepath} bdef
/FR {MR stroke} bdef
/PR {MR fill} bdef
/L1i {{currentfile picstr readhexstring pop} image} bdef
/tMatrix matrix def
/MakeOval {newpath tMatrix currentmatrix pop translate scale
0 0 1 0 360 arc tMatrix setmatrix} bdef
/FO {MakeOval stroke} bdef
/PO {MakeOval fill} bdef
/PD {currentlinewidth 2 div 0 360 arc fill
   PDlw -1 eq not {PDlw w /PDlw -1 def} if} def
/FA {newpath tMatrix currentmatrix pop translate scale
  0 0 1 5 -2 roll arc tMatrix setmatrix stroke} bdef
/PA {newpath tMatrix currentmatrix pop	translate 0 0 moveto scale
  0 0 1 5 -2 roll arc closepath tMatrix setmatrix fill} bdef
/FAn {newpath tMatrix currentmatrix pop translate scale
  0 0 1 5 -2 roll arcn tMatrix setmatrix stroke} bdef
/PAn {newpath tMatrix currentmatrix pop translate 0 0 moveto scale
  0 0 1 5 -2 roll arcn closepath tMatrix setmatrix fill} bdef
/vradius 0 def /hradius 0 def /lry 0 def
/lrx 0 def /uly 0 def /ulx 0 def /rad 0 def
/MRR {/vradius xdef /hradius xdef /lry xdef /lrx xdef /uly xdef
  /ulx xdef newpath tMatrix currentmatrix pop ulx hradius add uly
  vradius add translate hradius vradius scale 0 0 1 180 270 arc 
  tMatrix setmatrix lrx hradius sub uly vradius add translate
  hradius vradius scale 0 0 1 270 360 arc tMatrix setmatrix
  lrx hradius sub lry vradius sub translate hradius vradius scale
  0 0 1 0 90 arc tMatrix setmatrix ulx hradius add lry vradius sub
  translate hradius vradius scale 0 0 1 90 180 arc tMatrix setmatrix
  closepath} bdef
/FRR {MRR stroke } bdef
/PRR {MRR fill } bdef
/MlrRR {/lry xdef /lrx xdef /uly xdef /ulx xdef /rad lry uly sub 2 div def
  newpath tMatrix currentmatrix pop ulx rad add uly rad add translate
  rad rad scale 0 0 1 90 270 arc tMatrix setmatrix lrx rad sub lry rad
  sub translate rad rad scale 0 0 1 270 90 arc tMatrix setmatrix
  closepath} bdef
/FlrRR {MlrRR stroke } bdef
/PlrRR {MlrRR fill } bdef
/MtbRR {/lry xdef /lrx xdef /uly xdef /ulx xdef /rad lrx ulx sub 2 div def
  newpath tMatrix currentmatrix pop ulx rad add uly rad add translate
  rad rad scale 0 0 1 180 360 arc tMatrix setmatrix lrx rad sub lry rad
  sub translate rad rad scale 0 0 1 0 180 arc tMatrix setmatrix
  closepath} bdef
/FtbRR {MtbRR stroke } bdef
/PtbRR {MtbRR fill } bdef
/stri 6 array def /dtri 6 array def
/smat 6 array def /dmat 6 array def
/tmat1 6 array def /tmat2 6 array def /dif 3 array def
/asub {/ind2 exch def /ind1 exch def dup dup
  ind1 get exch ind2 get sub exch } bdef
/tri_to_matrix {
  2 0 asub 3 1 asub 4 0 asub 5 1 asub
  dup 0 get exch 1 get 7 -1 roll astore } bdef
/compute_transform {
  dmat dtri tri_to_matrix tmat1 invertmatrix 
  smat stri tri_to_matrix tmat2 concatmatrix } bdef
/ds {stri astore pop} bdef
/dt {dtri astore pop} bdef
/db {2 copy /cols xdef /rows xdef mul dup 3 mul string
  currentfile 
  3 index 0 eq {/ASCIIHexDecode filter}
  {/ASCII85Decode filter 3 index 2 eq {/RunLengthDecode filter} if }
  ifelse exch readstring pop
  dup 0 3 index getinterval /rbmap xdef
  dup 2 index dup getinterval /gbmap xdef
  1 index dup 2 mul exch getinterval /bbmap xdef pop pop}bdef
/it {gs np dtri aload pop moveto lineto lineto cp c
  cols rows 8 compute_transform 
  rbmap gbmap bbmap true 3 colorimage gr}bdef
/il {newpath moveto lineto stroke}bdef
currentdict end def
%%EndProlog

%%BeginSetup
MathWorks begin

0 cap

end
%%EndSetup

%%Page: 1 1
%%BeginPageSetup
%%PageBoundingBox:    81   207   529   584
MathWorks begin
bpage
%%EndPageSetup

%%BeginObject: obj1
bplot

/dpi2point 12 def
portraitMode 0972 7008 csm

    0     0  5376  4522 rc
87 dict begin %Colortable dictionary
/c0 { 0.000000 0.000000 0.000000 sr} bdef
/c1 { 1.000000 1.000000 1.000000 sr} bdef
/c2 { 0.900000 0.000000 0.000000 sr} bdef
/c3 { 0.000000 0.820000 0.000000 sr} bdef
/c4 { 0.000000 0.000000 0.800000 sr} bdef
/c5 { 0.910000 0.820000 0.320000 sr} bdef
/c6 { 1.000000 0.260000 0.820000 sr} bdef
/c7 { 0.000000 0.820000 0.820000 sr} bdef
c0
1 j
1 sg
   0    0 5377 4523 rf
6 w
0 3822 4704 0 0 -3822 653 4090 4 MP
PP
-4704 0 0 3822 4704 0 0 -3822 653 4090 5 MP stroke
4 w
DO
SO
6 w
0 sg
 653 4090 mt 5357 4090 L
 653  268 mt 5357  268 L
 653 4090 mt  653  268 L
5357 4090 mt 5357  268 L
 653 4090 mt 5357 4090 L
 653 4090 mt  653  268 L
 653 4090 mt  653 4042 L
 653  268 mt  653  316 L
%%IncludeResource: font Helvetica
/Helvetica /ISOLatin1Encoding 120 FMSR

 620 4235 mt 
(0) s
1101 4090 mt 1101 4042 L
1101  268 mt 1101  316 L
1001 4235 mt 
(200) s
1549 4090 mt 1549 4042 L
1549  268 mt 1549  316 L
1449 4235 mt 
(400) s
1997 4090 mt 1997 4042 L
1997  268 mt 1997  316 L
1897 4235 mt 
(600) s
2445 4090 mt 2445 4042 L
2445  268 mt 2445  316 L
2345 4235 mt 
(800) s
2893 4090 mt 2893 4042 L
2893  268 mt 2893  316 L
2760 4235 mt 
(1000) s
3341 4090 mt 3341 4042 L
3341  268 mt 3341  316 L
3208 4235 mt 
(1200) s
3789 4090 mt 3789 4042 L
3789  268 mt 3789  316 L
3656 4235 mt 
(1400) s
4237 4090 mt 4237 4042 L
4237  268 mt 4237  316 L
4104 4235 mt 
(1600) s
4685 4090 mt 4685 4042 L
4685  268 mt 4685  316 L
4552 4235 mt 
(1800) s
5133 4090 mt 5133 4042 L
5133  268 mt 5133  316 L
5000 4235 mt 
(2000) s
 653 4090 mt  700 4090 L
5357 4090 mt 5309 4090 L
 552 4134 mt 
(0) s
 653 3612 mt  700 3612 L
5357 3612 mt 5309 3612 L
 318 3656 mt 
(5,000) s
 653 3134 mt  700 3134 L
5357 3134 mt 5309 3134 L
 252 3178 mt 
(10,000) s
 653 2657 mt  700 2657 L
5357 2657 mt 5309 2657 L
 252 2701 mt 
(15,000) s
 653 2179 mt  700 2179 L
5357 2179 mt 5309 2179 L
 252 2223 mt 
(20,000) s
 653 1701 mt  700 1701 L
5357 1701 mt 5309 1701 L
 252 1745 mt 
(25,000) s
 653 1329 mt  700 1329 L
5357 1329 mt 5309 1329 L
 285 1373 mt 
(28900) s
 653 1224 mt  700 1224 L
5357 1224 mt 5309 1224 L
 252 1268 mt 
(30,000) s
 653 1119 mt  700 1119 L
5357 1119 mt 5309 1119 L
 285 1163 mt 
(31100) s
 653  746 mt  700  746 L
5357  746 mt 5309  746 L
 252  790 mt 
(35,000) s
 653  268 mt  700  268 L
5357  268 mt 5309  268 L
 252  312 mt 
(40,000) s
 653 4090 mt 5357 4090 L
 653  268 mt 5357  268 L
 653 4090 mt  653  268 L
5357 4090 mt 5357  268 L
gs 653 269 4705 3822 rc
36 w
/c8 { 0.000000 0.000000 1.000000 sr} bdef
c8
-29 -20 -16 -39 -54 -43 -16 -32 -80 -71 -25 -20 -130 -34 -358 -42 
-186 -33 -806 -53 -1087 -65 -1297 -139 -521 -47 5358 907 14 MP stroke
gr

36 w
c8
0 j
0 -94 -94 0 0 94 94 0 4790 813 5 MP
DP
0 -94 -94 0 0 94 94 0 3493 674 5 MP
DP
0 -94 -94 0 0 94 94 0 2406 609 5 MP
DP
0 -94 -94 0 0 94 94 0 1600 556 5 MP
DP
0 -94 -94 0 0 94 94 0 1414 523 5 MP
DP
0 -94 -94 0 0 94 94 0 1056 481 5 MP
DP
0 -94 -94 0 0 94 94 0 926 447 5 MP
DP
0 -94 -94 0 0 94 94 0 901 427 5 MP
DP
0 -94 -94 0 0 94 94 0 821 356 5 MP
DP
0 -94 -94 0 0 94 94 0 805 324 5 MP
DP
0 -94 -94 0 0 94 94 0 751 281 5 MP
DP
0 -94 -94 0 0 94 94 0 735 242 5 MP
DP
gs 653 269 4705 3822 rc
gr

0 sg
 636 4133 mt 
( ) s
5341  311 mt 
( ) s
%%IncludeResource: font Courier
/Courier /ISOLatin1Encoding 216 FMSR

1254 4415 mt 
(number of false merge pairs) s
 164 3930 mt  -90 rotate
(number of false split pairs) s
90 rotate
%%IncludeResource: font Courier
/Courier /ISOLatin1Encoding 168 FMSR

1089  175 mt 
(Linkage evaluation - segment-wise Rand) s
gs 653 269 4705 3822 rc
/c9 { 1.000000 0.000000 0.000000 sr} bdef
c9
-49 -48 -146 -67 -143 -79 -56 -89 -206 -118 -406 -109 -499 -138 -480 -163 
-869 -158 -1001 -192 -651 -40 5358 1922 12 MP stroke
gr

c9
-69 119 -69 -119 138 0 4638 1922 4 MP
DP
-69 119 -69 -119 138 0 3637 1730 4 MP
DP
-69 119 -69 -119 138 0 2768 1572 4 MP
DP
-69 119 -69 -119 138 0 2288 1409 4 MP
DP
-69 119 -69 -119 138 0 1789 1271 4 MP
DP
-69 119 -69 -119 138 0 1383 1162 4 MP
DP
-69 119 -69 -119 138 0 1177 1044 4 MP
DP
-69 119 -69 -119 138 0 1121 955 4 MP
DP
-69 119 -69 -119 138 0 978 876 4 MP
DP
-69 119 -69 -119 138 0 832 809 4 MP
DP
-69 119 -69 -119 138 0 783 761 4 MP
DP
gs 653 269 4705 3822 rc
/c10 { 0.000000 1.000000 0.000000 sr} bdef
c10
3492 980 379 270 436 214 45 251 917 823 5 MP stroke
gr

c10
  60   60  917  823 FO
  60   60  962 1074 FO
  60   60 1398 1288 FO
  60   60 1777 1558 FO
  60   60 5269 2538 FO
gs 653 269 4705 3822 rc
/c11 { 1.000000 0.000000 1.000000 sr} bdef
c11
661 67 360 121 850 430 3 MP stroke
gr

c11
60 79 -60 79 -60 -79 60 -79 850 509 5 MP
DP
60 79 -60 79 -60 -79 60 -79 1210 630 5 MP
DP
60 79 -60 79 -60 -79 60 -79 1871 697 5 MP
DP
gs 653 269 4705 3822 rc
DA
6 w
0 sg
4704 0 653 1329 2 MP stroke
4704 0 653 1122 2 MP stroke
0 -3821 1461 4090 2 MP stroke
SO
gr

6 w
0 sg
1 sg
0 718 4531 0 0 -718 768 3775 4 MP
PP
-4531 0 0 718 4531 0 0 -718 768 3775 5 MP stroke
4 w
DO
SO
6 w
0 sg
 768 3775 mt 5299 3775 L
 768 3057 mt 5299 3057 L
 768 3775 mt  768 3057 L
5299 3775 mt 5299 3057 L
 768 3775 mt 5299 3775 L
 768 3775 mt  768 3057 L
 768 3775 mt 5299 3775 L
 768 3057 mt 5299 3057 L
 768 3775 mt  768 3057 L
5299 3775 mt 5299 3057 L
1585 3220 mt 
(overlap area+boost) s
gs 768 3057 4532 719 rc
36 w
c8
628 0 893 3164 2 MP stroke
gr

36 w
c8
0 -94 -94 0 0 94 94 0 1160 3117 5 MP
DP
gs 768 3057 4532 719 rc
gr

0 sg
1585 3388 mt 
(intensity hist.+boost) s
gs 768 3057 4532 719 rc
c9
628 0 893 3332 2 MP stroke
gr

c9
-69 119 -69 -119 138 0 1138 3372 4 MP
DP
gs 768 3057 4532 719 rc
gr

0 sg
1585 3555 mt 
(intensity hist.+boost+co-cluster\(LP\)) s
gs 768 3057 4532 719 rc
c10
628 0 893 3499 2 MP stroke
gr

c10
  60   60 1207 3499 FO
gs 768 3057 4532 719 rc
gr

0 sg
1585 3723 mt 
(symmetric difference+co-cluster\(LP\)) s
gs 768 3057 4532 719 rc
c11
628 0 893 3667 2 MP stroke
gr

c11
60 79 -60 79 -60 -79 60 -79 1207 3746 5 MP
DP
gs 768 3057 4532 719 rc
6 w
gr

6 w

end %%Color Dict

eplot
%%EndObject

epage
end

showpage

%%Trailer
%%EOF
