%!PS-Adobe-3.0 EPSF-3.0
%%Creator: MATLAB, The Mathworks, Inc. Version 7.8.0.347 (R2009a). Operating System: Linux 2.6.29.6-217.2.3.fc11.x86_64 #1 SMP Wed Jul 29 16:02:42 EDT 2009 x86_64.
%%Title: /opt/home/shiv/research/em_reconstruction/reconstructions/scripts/linkage_experiments/result_figures/linkage_exp_fly_larva_no_ua_s_edit_score_sdp_vs_lp.eps
%%CreationDate: 10/20/2009  05:52:34
%%DocumentNeededFonts: Helvetica
%%+ Courier
%%DocumentProcessColors: Cyan Magenta Yellow Black
%%LanguageLevel: 2
%%Pages: 1
%%BoundingBox:    81   238   529   554
%%EndComments

%%BeginProlog
% MathWorks dictionary
/MathWorks 160 dict begin
% definition operators
/bdef {bind def} bind def
/ldef {load def} bind def
/xdef {exch def} bdef
/xstore {exch store} bdef
% operator abbreviations
/c  /clip ldef
/cc /concat ldef
/cp /closepath ldef
/gr /grestore ldef
/gs /gsave ldef
/mt /moveto ldef
/np /newpath ldef
/cm /currentmatrix ldef
/sm /setmatrix ldef
/rm /rmoveto ldef
/rl /rlineto ldef
/s {show newpath} bdef
/sc {setcmykcolor} bdef
/sr /setrgbcolor ldef
/sg /setgray ldef
/w /setlinewidth ldef
/j /setlinejoin ldef
/cap /setlinecap ldef
/rc {rectclip} bdef
/rf {rectfill} bdef
% page state control
/pgsv () def
/bpage {/pgsv save def} bdef
/epage {pgsv restore} bdef
/bplot /gsave ldef
/eplot {stroke grestore} bdef
% orientation switch
/portraitMode 0 def /landscapeMode 1 def /rotateMode 2 def
% coordinate system mappings
/dpi2point 0 def
% font control
/FontSize 0 def
/FMS {/FontSize xstore findfont [FontSize 0 0 FontSize neg 0 0]
  makefont setfont} bdef
/reencode {exch dup where {pop load} {pop StandardEncoding} ifelse
  exch dup 3 1 roll findfont dup length dict begin
  { 1 index /FID ne {def}{pop pop} ifelse } forall
  /Encoding exch def currentdict end definefont pop} bdef
/isroman {findfont /CharStrings get /Agrave known} bdef
/FMSR {3 1 roll 1 index dup isroman {reencode} {pop pop} ifelse
  exch FMS} bdef
/csm {1 dpi2point div -1 dpi2point div scale neg translate
 dup landscapeMode eq {pop -90 rotate}
  {rotateMode eq {90 rotate} if} ifelse} bdef
% line types: solid, dotted, dashed, dotdash
/SO { [] 0 setdash } bdef
/DO { [.5 dpi2point mul 4 dpi2point mul] 0 setdash } bdef
/DA { [6 dpi2point mul] 0 setdash } bdef
/DD { [.5 dpi2point mul 4 dpi2point mul 6 dpi2point mul 4
  dpi2point mul] 0 setdash } bdef
% macros for lines and objects
/L {lineto stroke} bdef
/MP {3 1 roll moveto 1 sub {rlineto} repeat} bdef
/AP {{rlineto} repeat} bdef
/PDlw -1 def
/W {/PDlw currentlinewidth def setlinewidth} def
/PP {closepath eofill} bdef
/DP {closepath stroke} bdef
/MR {4 -2 roll moveto dup  0 exch rlineto exch 0 rlineto
  neg 0 exch rlineto closepath} bdef
/FR {MR stroke} bdef
/PR {MR fill} bdef
/L1i {{currentfile picstr readhexstring pop} image} bdef
/tMatrix matrix def
/MakeOval {newpath tMatrix currentmatrix pop translate scale
0 0 1 0 360 arc tMatrix setmatrix} bdef
/FO {MakeOval stroke} bdef
/PO {MakeOval fill} bdef
/PD {currentlinewidth 2 div 0 360 arc fill
   PDlw -1 eq not {PDlw w /PDlw -1 def} if} def
/FA {newpath tMatrix currentmatrix pop translate scale
  0 0 1 5 -2 roll arc tMatrix setmatrix stroke} bdef
/PA {newpath tMatrix currentmatrix pop	translate 0 0 moveto scale
  0 0 1 5 -2 roll arc closepath tMatrix setmatrix fill} bdef
/FAn {newpath tMatrix currentmatrix pop translate scale
  0 0 1 5 -2 roll arcn tMatrix setmatrix stroke} bdef
/PAn {newpath tMatrix currentmatrix pop translate 0 0 moveto scale
  0 0 1 5 -2 roll arcn closepath tMatrix setmatrix fill} bdef
/vradius 0 def /hradius 0 def /lry 0 def
/lrx 0 def /uly 0 def /ulx 0 def /rad 0 def
/MRR {/vradius xdef /hradius xdef /lry xdef /lrx xdef /uly xdef
  /ulx xdef newpath tMatrix currentmatrix pop ulx hradius add uly
  vradius add translate hradius vradius scale 0 0 1 180 270 arc 
  tMatrix setmatrix lrx hradius sub uly vradius add translate
  hradius vradius scale 0 0 1 270 360 arc tMatrix setmatrix
  lrx hradius sub lry vradius sub translate hradius vradius scale
  0 0 1 0 90 arc tMatrix setmatrix ulx hradius add lry vradius sub
  translate hradius vradius scale 0 0 1 90 180 arc tMatrix setmatrix
  closepath} bdef
/FRR {MRR stroke } bdef
/PRR {MRR fill } bdef
/MlrRR {/lry xdef /lrx xdef /uly xdef /ulx xdef /rad lry uly sub 2 div def
  newpath tMatrix currentmatrix pop ulx rad add uly rad add translate
  rad rad scale 0 0 1 90 270 arc tMatrix setmatrix lrx rad sub lry rad
  sub translate rad rad scale 0 0 1 270 90 arc tMatrix setmatrix
  closepath} bdef
/FlrRR {MlrRR stroke } bdef
/PlrRR {MlrRR fill } bdef
/MtbRR {/lry xdef /lrx xdef /uly xdef /ulx xdef /rad lrx ulx sub 2 div def
  newpath tMatrix currentmatrix pop ulx rad add uly rad add translate
  rad rad scale 0 0 1 180 360 arc tMatrix setmatrix lrx rad sub lry rad
  sub translate rad rad scale 0 0 1 0 180 arc tMatrix setmatrix
  closepath} bdef
/FtbRR {MtbRR stroke } bdef
/PtbRR {MtbRR fill } bdef
/stri 6 array def /dtri 6 array def
/smat 6 array def /dmat 6 array def
/tmat1 6 array def /tmat2 6 array def /dif 3 array def
/asub {/ind2 exch def /ind1 exch def dup dup
  ind1 get exch ind2 get sub exch } bdef
/tri_to_matrix {
  2 0 asub 3 1 asub 4 0 asub 5 1 asub
  dup 0 get exch 1 get 7 -1 roll astore } bdef
/compute_transform {
  dmat dtri tri_to_matrix tmat1 invertmatrix 
  smat stri tri_to_matrix tmat2 concatmatrix } bdef
/ds {stri astore pop} bdef
/dt {dtri astore pop} bdef
/db {2 copy /cols xdef /rows xdef mul dup 3 mul string
  currentfile 
  3 index 0 eq {/ASCIIHexDecode filter}
  {/ASCII85Decode filter 3 index 2 eq {/RunLengthDecode filter} if }
  ifelse exch readstring pop
  dup 0 3 index getinterval /rbmap xdef
  dup 2 index dup getinterval /gbmap xdef
  1 index dup 2 mul exch getinterval /bbmap xdef pop pop}bdef
/it {gs np dtri aload pop moveto lineto lineto cp c
  cols rows 8 compute_transform 
  rbmap gbmap bbmap true 3 colorimage gr}bdef
/il {newpath moveto lineto stroke}bdef
currentdict end def
%%EndProlog

%%BeginSetup
MathWorks begin

0 cap

end
%%EndSetup

%%Page: 1 1
%%BeginPageSetup
%%PageBoundingBox:    81   238   529   554
MathWorks begin
bpage
%%EndPageSetup

%%BeginObject: obj1
bplot

/dpi2point 12 def
portraitMode 0972 6648 csm

    0     0  5376  3792 rc
86 dict begin %Colortable dictionary
/c0 { 0.000000 0.000000 0.000000 sr} bdef
/c1 { 1.000000 1.000000 1.000000 sr} bdef
/c2 { 0.900000 0.000000 0.000000 sr} bdef
/c3 { 0.000000 0.820000 0.000000 sr} bdef
/c4 { 0.000000 0.000000 0.800000 sr} bdef
/c5 { 0.910000 0.820000 0.320000 sr} bdef
/c6 { 1.000000 0.260000 0.820000 sr} bdef
/c7 { 0.000000 0.820000 0.820000 sr} bdef
c0
1 j
1 sg
   0    0 5377 3793 rf
6 w
0 3370 4687 0 0 -3370 687 3370 4 MP
PP
-4687 0 0 3370 4687 0 0 -3370 687 3370 5 MP stroke
4 w
DO
SO
6 w
0 sg
 687 3370 mt 5374 3370 L
 687    0 mt 5374    0 L
 687 3370 mt  687    0 L
5374 3370 mt 5374    0 L
 687 3370 mt 5374 3370 L
 687 3370 mt  687    0 L
 687 3370 mt  687 3323 L
 687    0 mt  687   46 L
%%IncludeResource: font Courier
/Courier /ISOLatin1Encoding 216 FMSR

 623 3577 mt 
(0) s
1408 3370 mt 1408 3323 L
1408    0 mt 1408   46 L
1279 3577 mt 
(20) s
2129 3370 mt 2129 3323 L
2129    0 mt 2129   46 L
2000 3577 mt 
(40) s
2850 3370 mt 2850 3323 L
2850    0 mt 2850   46 L
2721 3577 mt 
(60) s
3571 3370 mt 3571 3323 L
3571    0 mt 3571   46 L
3442 3577 mt 
(80) s
4292 3370 mt 4292 3323 L
4292    0 mt 4292   46 L
4098 3577 mt 
(100) s
5013 3370 mt 5013 3323 L
5013    0 mt 5013   46 L
4819 3577 mt 
(120) s
 687 3370 mt  733 3370 L
5374 3370 mt 5327 3370 L
 523 3439 mt 
(0) s
 687 2851 mt  733 2851 L
5374 2851 mt 5327 2851 L
 393 2920 mt 
(20) s
 687 2333 mt  733 2333 L
5374 2333 mt 5327 2333 L
 393 2402 mt 
(40) s
 687 1814 mt  733 1814 L
5374 1814 mt 5327 1814 L
 393 1883 mt 
(60) s
 687 1296 mt  733 1296 L
5374 1296 mt 5327 1296 L
 393 1365 mt 
(80) s
 687  777 mt  733  777 L
5374  777 mt 5327  777 L
 264  846 mt 
(100) s
 687  259 mt  733  259 L
5374  259 mt 5327  259 L
 264  328 mt 
(120) s
 687 3370 mt 5374 3370 L
 687    0 mt 5374    0 L
 687 3370 mt  687    0 L
5374 3370 mt 5374    0 L
1409 3757 mt 
(Number of required splits) s
 176 3306 mt  -90 rotate
(Number of required merges) s
90 rotate
%%IncludeResource: font Helvetica
/Helvetica /ISOLatin1Encoding 120 FMSR

 670 3413 mt 
( ) s
5358   42 mt 
( ) s
gs 687 0 4688 3371 rc
36 w
/c8 { 0.000000 0.000000 1.000000 sr} bdef
c8
-144 -1141 -4419 2022 5250 0 3 MP stroke
gr

36 w
c8
 771 2022 mt  891 2022 L
 831 1962 mt  831 2082 L
 627  881 mt  747  881 L
 687  821 mt  687  941 L
gs 687 0 4688 3371 rc
gr

0 j
-69 119 -69 -119 138 0 654 3124 4 MP
/c9 { 0.000000 1.000000 0.000000 sr} bdef
c9
DP
gs 687 0 4688 3371 rc
gr

-69 119 -69 -119 138 0 870 3047 4 MP
DP
gs 687 0 4688 3371 rc
gr

-69 119 -69 -119 138 0 834 3098 4 MP
DP
gs 687 0 4688 3371 rc
gr

-69 119 -69 -119 138 0 834 3021 4 MP
DP
gs 687 0 4688 3371 rc
831 2981 PD
gr

-69 119 -69 -119 138 0 762 3021 4 MP
DP
gs 687 0 4688 3371 rc
gr

-69 119 -69 -119 138 0 726 3073 4 MP
DP
gs 687 0 4688 3371 rc
gr

-69 119 -69 -119 138 0 654 3098 4 MP
DP
gs 687 0 4688 3371 rc
c8
-685 -1478 -793 260 -1838 1140 -1371 959 5374 0 5 MP stroke
gr

c8
3943  959 mt 4063  959 L
4003  899 mt 4003 1019 L
2105 2099 mt 2225 2099 L
2165 2039 mt 2165 2159 L
1312 2359 mt 1432 2359 L
1372 2299 mt 1372 2419 L
 627  881 mt  747  881 L
 687  821 mt  687  941 L
gs 687 0 4688 3371 rc
-1117 -1452 -1442 882 -1298 855 -685 493 -145 103 5374 0 6 MP stroke
gr

5169  103 mt 5289  103 L
5229   43 mt 5229  163 L
4484  596 mt 4604  596 L
4544  536 mt 4544  656 L
3186 1451 mt 3306 1451 L
3246 1391 mt 3246 1511 L
1744 2333 mt 1864 2333 L
1804 2273 mt 1804 2393 L
 627  881 mt  747  881 L
 687  821 mt  687  941 L
gs 687 0 4688 3371 rc
-757 -1555 -1225 622 -1515 985 -1190 829 5374 0 5 MP stroke
gr

4124  829 mt 4244  829 L
4184  769 mt 4184  889 L
2609 1814 mt 2729 1814 L
2669 1754 mt 2669 1874 L
1384 2436 mt 1504 2436 L
1444 2376 mt 1444 2496 L
 627  881 mt  747  881 L
 687  821 mt  687  941 L
gs 687 0 4688 3371 rc
-757 -1452 -1370 648 -1658 1063 -897 622 5369 0 5 MP stroke
gr

4412  622 mt 4532  622 L
4472  562 mt 4472  682 L
2754 1685 mt 2874 1685 L
2814 1625 mt 2814 1745 L
1384 2333 mt 1504 2333 L
1444 2273 mt 1444 2393 L
 627  881 mt  747  881 L
 687  821 mt  687  941 L
gs 687 0 4688 3371 rc
-829 -1400 -1262 571 -1334 855 -1225 830 -37 25 5374 0 6 MP stroke
gr

5277   25 mt 5397   25 L
5337  -34 mt 5337   85 L
4052  855 mt 4172  855 L
4112  795 mt 4112  915 L
2718 1710 mt 2838 1710 L
2778 1650 mt 2778 1770 L
1456 2281 mt 1576 2281 L
1516 2221 mt 1516 2341 L
 627  881 mt  747  881 L
 687  821 mt  687  941 L
gs 687 0 4688 3371 rc
-973 -1400 -1478 804 -1298 829 -938 648 5374 0 5 MP stroke
gr

4376  648 mt 4496  648 L
4436  588 mt 4436  708 L
3078 1477 mt 3198 1477 L
3138 1417 mt 3138 1537 L
1600 2281 mt 1720 2281 L
1660 2221 mt 1660 2341 L
 627  881 mt  747  881 L
 687  821 mt  687  941 L
gs 687 0 4688 3371 rc
-1189 -1296 -1082 518 -1586 1063 -830 596 5374 0 5 MP stroke
gr

4484  596 mt 4604  596 L
4544  536 mt 4544  656 L
2898 1659 mt 3018 1659 L
2958 1599 mt 2958 1719 L
1816 2177 mt 1936 2177 L
1876 2117 mt 1876 2237 L
 627  881 mt  747  881 L
 687  821 mt  687  941 L
gs 687 0 4688 3371 rc
6 w
gr

6 w
1 sg
0 470 3153 0 0 -470 1908 3108 4 MP
PP
-3153 0 0 470 3153 0 0 -470 1908 3108 5 MP stroke
4 w
DO
SO
6 w
0 sg
1908 3108 mt 5061 3108 L
1908 2638 mt 5061 2638 L
1908 3108 mt 1908 2638 L
5061 3108 mt 5061 2638 L
1908 3108 mt 5061 3108 L
1908 3108 mt 1908 2638 L
1908 3108 mt 5061 3108 L
1908 2638 mt 5061 2638 L
1908 3108 mt 1908 2638 L
5061 3108 mt 5061 2638 L
%%IncludeResource: font Courier
/Courier /ISOLatin1Encoding 216 FMSR

3018 2840 mt 
(co-cluster SDP) s
gs 1908 2638 3154 471 rc
36 w
c8
854 0 2078 2769 2 MP stroke
gr

36 w
c8
gs 2347 2611 317 317 rc
2445 2769 mt 2565 2769 L
2505 2709 mt 2505 2829 L
gr

gs 1908 2638 3154 471 rc
gr

0 sg
3018 3047 mt 
(co-cluster LP) s
gs 1908 2638 3154 471 rc
gr

gs 2347 2818 317 317 rc
-69 119 -69 -119 138 0 2436 3016 4 MP
c9
DP
gr

c9
gs 1908 2638 3154 471 rc
6 w
gr

6 w

end %%Color Dict

eplot
%%EndObject

epage
end

showpage

%%Trailer
%%EOF
