%!PS-Adobe-3.0 EPSF-3.0
%%Creator: MATLAB, The Mathworks, Inc. Version 7.5.0.342 (R2007b). Operating System: Microsoft Windows XP.
%%Title: Z:\research\em_reconstruction_pipeline\reconstructions\scripts\em_segmentation_paper\seg_boundary_eval_results\seg_boundary_prec_recl_medulla_ac_x12_x16_np_nh_mean_f.eps
%%CreationDate: 06/04/2009  08:24:38
%%DocumentNeededFonts: Helvetica
%%DocumentProcessColors: Cyan Magenta Yellow Black
%%LanguageLevel: 2
%%Pages: 1
%%BoundingBox:     0   141   612   650
%%EndComments

%%BeginProlog
% MathWorks dictionary
/MathWorks 160 dict begin
% definition operators
/bdef {bind def} bind def
/ldef {load def} bind def
/xdef {exch def} bdef
/xstore {exch store} bdef
% operator abbreviations
/c  /clip ldef
/cc /concat ldef
/cp /closepath ldef
/gr /grestore ldef
/gs /gsave ldef
/mt /moveto ldef
/np /newpath ldef
/cm /currentmatrix ldef
/sm /setmatrix ldef
/rm /rmoveto ldef
/rl /rlineto ldef
/s {show newpath} bdef
/sc {setcmykcolor} bdef
/sr /setrgbcolor ldef
/sg /setgray ldef
/w /setlinewidth ldef
/j /setlinejoin ldef
/cap /setlinecap ldef
/rc {rectclip} bdef
/rf {rectfill} bdef
% page state control
/pgsv () def
/bpage {/pgsv save def} bdef
/epage {pgsv restore} bdef
/bplot /gsave ldef
/eplot {stroke grestore} bdef
% orientation switch
/portraitMode 0 def /landscapeMode 1 def /rotateMode 2 def
% coordinate system mappings
/dpi2point 0 def
% font control
/FontSize 0 def
/FMS {/FontSize xstore findfont [FontSize 0 0 FontSize neg 0 0]
  makefont setfont} bdef
/ISOLatin1Encoding where {pop /WindowsLatin1Encoding 256 array bdef
ISOLatin1Encoding WindowsLatin1Encoding copy pop
/.notdef/.notdef/quotesinglbase/florin/quotedblbase/ellipsis/dagger
/daggerdbl/circumflex/perthousand/Scaron/guilsinglleft/OE/.notdef/.notdef
/.notdef/.notdef/quoteleft/quoteright/quotedblleft/quotedblright/bullet
/endash/emdash/tilde/trademark/scaron/guilsinglright/oe/.notdef/.notdef
/Ydieresis WindowsLatin1Encoding 128 32 getinterval astore pop}
{/WindowsLatin1Encoding StandardEncoding bdef} ifelse
/reencode {exch dup where {pop load} {pop StandardEncoding} ifelse
  exch dup 3 1 roll findfont dup length dict begin
  { 1 index /FID ne {def}{pop pop} ifelse } forall
  /Encoding exch def currentdict end definefont pop} bdef
/isroman {findfont /CharStrings get /Agrave known} bdef
/FMSR {3 1 roll 1 index dup isroman {reencode} {pop pop} ifelse
  exch FMS} bdef
/csm {1 dpi2point div -1 dpi2point div scale neg translate
 dup landscapeMode eq {pop -90 rotate}
  {rotateMode eq {90 rotate} if} ifelse} bdef
% line types: solid, dotted, dashed, dotdash
/SO { [] 0 setdash } bdef
/DO { [.5 dpi2point mul 4 dpi2point mul] 0 setdash } bdef
/DA { [6 dpi2point mul] 0 setdash } bdef
/DD { [.5 dpi2point mul 4 dpi2point mul 6 dpi2point mul 4
  dpi2point mul] 0 setdash } bdef
% macros for lines and objects
/L {lineto stroke} bdef
/MP {3 1 roll moveto 1 sub {rlineto} repeat} bdef
/AP {{rlineto} repeat} bdef
/PDlw -1 def
/W {/PDlw currentlinewidth def setlinewidth} def
/PP {closepath eofill} bdef
/DP {closepath stroke} bdef
/MR {4 -2 roll moveto dup  0 exch rlineto exch 0 rlineto
  neg 0 exch rlineto closepath} bdef
/FR {MR stroke} bdef
/PR {MR fill} bdef
/L1i {{currentfile picstr readhexstring pop} image} bdef
/tMatrix matrix def
/MakeOval {newpath tMatrix currentmatrix pop translate scale
0 0 1 0 360 arc tMatrix setmatrix} bdef
/FO {MakeOval stroke} bdef
/PO {MakeOval fill} bdef
/PD {currentlinewidth 2 div 0 360 arc fill
   PDlw -1 eq not {PDlw w /PDlw -1 def} if} def
/FA {newpath tMatrix currentmatrix pop translate scale
  0 0 1 5 -2 roll arc tMatrix setmatrix stroke} bdef
/PA {newpath tMatrix currentmatrix pop	translate 0 0 moveto scale
  0 0 1 5 -2 roll arc closepath tMatrix setmatrix fill} bdef
/FAn {newpath tMatrix currentmatrix pop translate scale
  0 0 1 5 -2 roll arcn tMatrix setmatrix stroke} bdef
/PAn {newpath tMatrix currentmatrix pop translate 0 0 moveto scale
  0 0 1 5 -2 roll arcn closepath tMatrix setmatrix fill} bdef
/vradius 0 def /hradius 0 def /lry 0 def
/lrx 0 def /uly 0 def /ulx 0 def /rad 0 def
/MRR {/vradius xdef /hradius xdef /lry xdef /lrx xdef /uly xdef
  /ulx xdef newpath tMatrix currentmatrix pop ulx hradius add uly
  vradius add translate hradius vradius scale 0 0 1 180 270 arc 
  tMatrix setmatrix lrx hradius sub uly vradius add translate
  hradius vradius scale 0 0 1 270 360 arc tMatrix setmatrix
  lrx hradius sub lry vradius sub translate hradius vradius scale
  0 0 1 0 90 arc tMatrix setmatrix ulx hradius add lry vradius sub
  translate hradius vradius scale 0 0 1 90 180 arc tMatrix setmatrix
  closepath} bdef
/FRR {MRR stroke } bdef
/PRR {MRR fill } bdef
/MlrRR {/lry xdef /lrx xdef /uly xdef /ulx xdef /rad lry uly sub 2 div def
  newpath tMatrix currentmatrix pop ulx rad add uly rad add translate
  rad rad scale 0 0 1 90 270 arc tMatrix setmatrix lrx rad sub lry rad
  sub translate rad rad scale 0 0 1 270 90 arc tMatrix setmatrix
  closepath} bdef
/FlrRR {MlrRR stroke } bdef
/PlrRR {MlrRR fill } bdef
/MtbRR {/lry xdef /lrx xdef /uly xdef /ulx xdef /rad lrx ulx sub 2 div def
  newpath tMatrix currentmatrix pop ulx rad add uly rad add translate
  rad rad scale 0 0 1 180 360 arc tMatrix setmatrix lrx rad sub lry rad
  sub translate rad rad scale 0 0 1 0 180 arc tMatrix setmatrix
  closepath} bdef
/FtbRR {MtbRR stroke } bdef
/PtbRR {MtbRR fill } bdef
/stri 6 array def /dtri 6 array def
/smat 6 array def /dmat 6 array def
/tmat1 6 array def /tmat2 6 array def /dif 3 array def
/asub {/ind2 exch def /ind1 exch def dup dup
  ind1 get exch ind2 get sub exch } bdef
/tri_to_matrix {
  2 0 asub 3 1 asub 4 0 asub 5 1 asub
  dup 0 get exch 1 get 7 -1 roll astore } bdef
/compute_transform {
  dmat dtri tri_to_matrix tmat1 invertmatrix 
  smat stri tri_to_matrix tmat2 concatmatrix } bdef
/ds {stri astore pop} bdef
/dt {dtri astore pop} bdef
/db {2 copy /cols xdef /rows xdef mul dup 3 mul string
  currentfile 
  3 index 0 eq {/ASCIIHexDecode filter}
  {/ASCII85Decode filter 3 index 2 eq {/RunLengthDecode filter} if }
  ifelse exch readstring pop
  dup 0 3 index getinterval /rbmap xdef
  dup 2 index dup getinterval /gbmap xdef
  1 index dup 2 mul exch getinterval /bbmap xdef pop pop}bdef
/it {gs np dtri aload pop moveto lineto lineto cp c
  cols rows 8 compute_transform 
  rbmap gbmap bbmap true 3 colorimage gr}bdef
/il {newpath moveto lineto stroke}bdef
currentdict end def
%%EndProlog

%%BeginSetup
MathWorks begin

0 cap

end
%%EndSetup

%%Page: 1 1
%%BeginPageSetup
%%PageBoundingBox:     0   141   612   650
MathWorks begin
bpage
%%EndPageSetup

%%BeginObject: obj1
bplot

/dpi2point 12 def
portraitMode 0000 7800 csm

    0     0  7352  6102 rc
86 dict begin %Colortable dictionary
/c0 { 0.000000 0.000000 0.000000 sr} bdef
/c1 { 1.000000 1.000000 1.000000 sr} bdef
/c2 { 0.900000 0.000000 0.000000 sr} bdef
/c3 { 0.000000 0.820000 0.000000 sr} bdef
/c4 { 0.000000 0.000000 0.800000 sr} bdef
/c5 { 0.910000 0.820000 0.320000 sr} bdef
/c6 { 1.000000 0.260000 0.820000 sr} bdef
/c7 { 0.000000 0.820000 0.820000 sr} bdef
c0
1 j
1 sg
   0    0 7353 6103 rf
6 w
0 5471 6299 0 0 -5471 981 5588 4 MP
PP
-6299 0 0 5471 6299 0 0 -5471 981 5588 5 MP stroke
4 w
DO
SO
6 w
0 sg
 981  117 mt 7280  117 L
 981 5588 mt 7280 5588 L
7280 5588 mt 7280  117 L
 981 5588 mt  981  117 L
 981 5588 mt 7280 5588 L
 981 5588 mt  981  117 L
 981 5588 mt  981 5526 L
 981  116 mt  981  179 L
%%IncludeResource: font Helvetica
/Helvetica /WindowsLatin1Encoding 216 FMSR

 831 5824 mt 
(0.8) s
2555 5588 mt 2555 5526 L
2555  116 mt 2555  179 L
2345 5824 mt 
(0.85) s
4130 5588 mt 4130 5526 L
4130  116 mt 4130  179 L
3980 5824 mt 
(0.9) s
5705 5588 mt 5705 5526 L
5705  116 mt 5705  179 L
5495 5824 mt 
(0.95) s
7280 5588 mt 7280 5526 L
7280  116 mt 7280  179 L
7220 5824 mt 
(1) s
 981 5588 mt 1043 5588 L
7280 5588 mt 7217 5588 L
 526 5668 mt 
(0.65) s
 981 4807 mt 1043 4807 L
7280 4807 mt 7217 4807 L
 646 4887 mt 
(0.7) s
 981 4025 mt 1043 4025 L
7280 4025 mt 7217 4025 L
 526 4105 mt 
(0.75) s
 981 3243 mt 1043 3243 L
7280 3243 mt 7217 3243 L
 646 3323 mt 
(0.8) s
 981 2462 mt 1043 2462 L
7280 2462 mt 7217 2462 L
 526 2542 mt 
(0.85) s
 981 1680 mt 1043 1680 L
7280 1680 mt 7217 1680 L
 646 1760 mt 
(0.9) s
 981  898 mt 1043  898 L
7280  898 mt 7217  898 L
 526  978 mt 
(0.95) s
 981  116 mt 1043  116 L
7280  116 mt 7217  116 L
 826  196 mt 
(1) s
 981  117 mt 7280  117 L
 981 5588 mt 7280 5588 L
7280 5588 mt 7280  117 L
 981 5588 mt  981  117 L
gs 981 116 6300 5473 rc
24 w
/c8 { 0.000000 1.000000 0.000000 sr} bdef
c8
385 794 729 741 5777 1669 3 MP stroke
gs 5607 1499 1455 1876 rc
5705 1669 mt 5849 1669 L
5777 1597 mt 5777 1741 L
6434 2410 mt 6578 2410 L
6506 2338 mt 6506 2482 L
6819 3204 mt 6963 3204 L
6891 3132 mt 6891 3276 L
5727 1619 mt 5827 1719 L
5827 1619 mt 5727 1719 L
6456 2360 mt 6556 2460 L
6556 2360 mt 6456 2460 L
6841 3154 mt 6941 3254 L
6941 3154 mt 6841 3254 L
gr

/c9 { 1.000000 0.000000 0.000000 sr} bdef
c9
143 512 615 1011 1071 699 1095 439 1277 201 2873 785 6 MP stroke
gs 2703 615 4542 3203 rc
0 j
-83 143 -83 -143 166 0 2790 833 4 MP
DP
-83 143 -83 -143 166 0 4067 1034 4 MP
DP
-83 143 -83 -143 166 0 5162 1473 4 MP
DP
-83 143 -83 -143 166 0 6233 2172 4 MP
DP
-83 143 -83 -143 166 0 6848 3183 4 MP
DP
-83 143 -83 -143 166 0 6991 3695 4 MP
DP
gr

/c10 { 0.000000 0.000000 1.000000 sr} bdef
c10
175 611 894 1203 1521 726 1639 359 2865 748 5 MP stroke
gs 2695 578 4570 3240 rc
2815  698 mt 2915  798 L
2915  698 mt 2815  798 L
4454 1057 mt 4554 1157 L
4554 1057 mt 4454 1157 L
5975 1783 mt 6075 1883 L
6075 1783 mt 5975 1883 L
6869 2986 mt 6969 3086 L
6969 2986 mt 6869 3086 L
7044 3597 mt 7144 3697 L
7144 3597 mt 7044 3697 L
gr

gr

24 w
c10
0 sg
1614 6038 mt 
(Recall: Fraction of ground-truth boundaries detected) s
 174 3327 mt  -90 rotate
(Precision:) s
90 rotate
 423 5652 mt  -90 rotate
( Fraction of automatic segment boundaries that are correct) s
90 rotate
%%IncludeResource: font Helvetica
/Helvetica /WindowsLatin1Encoding 120 FMSR

 964 5631 mt 
( ) s
7264  158 mt 
( ) s
6 w
1 sg
0 1194 4145 0 0 -1194 1172 5244 4 MP
PP
-4145 0 0 1194 4145 0 0 -1194 1172 5244 5 MP stroke
4 w
DO
SO
6 w
0 sg
1172 4050 mt 5317 4050 L
1172 5244 mt 5317 5244 L
5317 5244 mt 5317 4050 L
1172 5244 mt 1172 4050 L
1172 5244 mt 5317 5244 L
1172 5244 mt 1172 4050 L
1172 4050 mt 5317 4050 L
1172 5244 mt 5317 5244 L
5317 5244 mt 5317 4050 L
1172 5244 mt 1172 4050 L
%%IncludeResource: font Helvetica
/Helvetica /WindowsLatin1Encoding 216 FMSR

1658 4300 mt 
(Non. param. - norm. hist. K) s
%%IncludeResource: font Helvetica
/Helvetica /WindowsLatin1Encoding 168 FMSR

4256 4408 mt 
(1) s
%%IncludeResource: font Helvetica
/Helvetica /WindowsLatin1Encoding 216 FMSR

4349 4300 mt 
( ) s
%%IncludeResource: font Symbol
/Symbol /WindowsLatin1Encoding 216 FMSR

4409 4300 mt 
(D) s
%%IncludeResource: font Helvetica
/Helvetica /WindowsLatin1Encoding 216 FMSR

4541 4300 mt 
(=1.9 ) s
gs 1172 4050 4146 1195 rc
24 w
c8
374 0 1246 4263 2 MP stroke
gs 1263 4093 341 341 rc
1361 4263 mt 1505 4263 L
1433 4191 mt 1433 4335 L
1383 4213 mt 1483 4313 L
1483 4213 mt 1383 4313 L
gr

gr

24 w
c8
0 sg
1658 4685 mt 
(Non. param. - norm. hist. K) s
%%IncludeResource: font Helvetica
/Helvetica /WindowsLatin1Encoding 168 FMSR

4256 4793 mt 
(1) s
%%IncludeResource: font Helvetica
/Helvetica /WindowsLatin1Encoding 216 FMSR

4349 4685 mt 
( ) s
%%IncludeResource: font Symbol
/Symbol /WindowsLatin1Encoding 216 FMSR

4409 4685 mt 
(D) s
%%IncludeResource: font Helvetica
/Helvetica /WindowsLatin1Encoding 216 FMSR

4541 4685 mt 
( = 1.6) s
gs 1172 4050 4146 1195 rc
c9
374 0 1246 4647 2 MP stroke
gs 1263 4477 341 341 rc
0 j
-83 143 -83 -143 166 0 1350 4695 4 MP
DP
gr

gr

c9
0 sg
1658 5069 mt 
(Non. param. - norm. hist. K) s
%%IncludeResource: font Helvetica
/Helvetica /WindowsLatin1Encoding 168 FMSR

4256 5177 mt 
(1) s
%%IncludeResource: font Helvetica
/Helvetica /WindowsLatin1Encoding 216 FMSR

4349 5069 mt 
( ) s
%%IncludeResource: font Symbol
/Symbol /WindowsLatin1Encoding 216 FMSR

4409 5069 mt 
(D) s
%%IncludeResource: font Helvetica
/Helvetica /WindowsLatin1Encoding 216 FMSR

4541 5069 mt 
( = 1.4) s
gs 1172 4050 4146 1195 rc
c10
374 0 1246 5031 2 MP stroke
gs 1263 4861 341 341 rc
1383 4981 mt 1483 5081 L
1483 4981 mt 1383 5081 L
gr

6 w
gr

6 w
c10

end %%Color Dict

eplot
%%EndObject

epage
end

showpage

%%Trailer
%%EOF
