%!PS-Adobe-3.0 EPSF-3.0
%%Creator: MATLAB, The Mathworks, Inc. Version 7.5.0.342 (R2007b). Operating System: Microsoft Windows XP.
%%Title: Z:\research\em_reconstruction_pipeline\reconstructions\scripts\em_segmentation_paper\seg_boundary_eval_results\seg_boundary_prec_recl_medulla_ac_x12_x16_np_1nn_f.eps
%%CreationDate: 06/04/2009  16:35:50
%%DocumentNeededFonts: Helvetica
%%DocumentProcessColors: Cyan Magenta Yellow Black
%%LanguageLevel: 2
%%Pages: 1
%%BoundingBox:     0   141   612   650
%%EndComments

%%BeginProlog
% MathWorks dictionary
/MathWorks 160 dict begin
% definition operators
/bdef {bind def} bind def
/ldef {load def} bind def
/xdef {exch def} bdef
/xstore {exch store} bdef
% operator abbreviations
/c  /clip ldef
/cc /concat ldef
/cp /closepath ldef
/gr /grestore ldef
/gs /gsave ldef
/mt /moveto ldef
/np /newpath ldef
/cm /currentmatrix ldef
/sm /setmatrix ldef
/rm /rmoveto ldef
/rl /rlineto ldef
/s {show newpath} bdef
/sc {setcmykcolor} bdef
/sr /setrgbcolor ldef
/sg /setgray ldef
/w /setlinewidth ldef
/j /setlinejoin ldef
/cap /setlinecap ldef
/rc {rectclip} bdef
/rf {rectfill} bdef
% page state control
/pgsv () def
/bpage {/pgsv save def} bdef
/epage {pgsv restore} bdef
/bplot /gsave ldef
/eplot {stroke grestore} bdef
% orientation switch
/portraitMode 0 def /landscapeMode 1 def /rotateMode 2 def
% coordinate system mappings
/dpi2point 0 def
% font control
/FontSize 0 def
/FMS {/FontSize xstore findfont [FontSize 0 0 FontSize neg 0 0]
  makefont setfont} bdef
/ISOLatin1Encoding where {pop /WindowsLatin1Encoding 256 array bdef
ISOLatin1Encoding WindowsLatin1Encoding copy pop
/.notdef/.notdef/quotesinglbase/florin/quotedblbase/ellipsis/dagger
/daggerdbl/circumflex/perthousand/Scaron/guilsinglleft/OE/.notdef/.notdef
/.notdef/.notdef/quoteleft/quoteright/quotedblleft/quotedblright/bullet
/endash/emdash/tilde/trademark/scaron/guilsinglright/oe/.notdef/.notdef
/Ydieresis WindowsLatin1Encoding 128 32 getinterval astore pop}
{/WindowsLatin1Encoding StandardEncoding bdef} ifelse
/reencode {exch dup where {pop load} {pop StandardEncoding} ifelse
  exch dup 3 1 roll findfont dup length dict begin
  { 1 index /FID ne {def}{pop pop} ifelse } forall
  /Encoding exch def currentdict end definefont pop} bdef
/isroman {findfont /CharStrings get /Agrave known} bdef
/FMSR {3 1 roll 1 index dup isroman {reencode} {pop pop} ifelse
  exch FMS} bdef
/csm {1 dpi2point div -1 dpi2point div scale neg translate
 dup landscapeMode eq {pop -90 rotate}
  {rotateMode eq {90 rotate} if} ifelse} bdef
% line types: solid, dotted, dashed, dotdash
/SO { [] 0 setdash } bdef
/DO { [.5 dpi2point mul 4 dpi2point mul] 0 setdash } bdef
/DA { [6 dpi2point mul] 0 setdash } bdef
/DD { [.5 dpi2point mul 4 dpi2point mul 6 dpi2point mul 4
  dpi2point mul] 0 setdash } bdef
% macros for lines and objects
/L {lineto stroke} bdef
/MP {3 1 roll moveto 1 sub {rlineto} repeat} bdef
/AP {{rlineto} repeat} bdef
/PDlw -1 def
/W {/PDlw currentlinewidth def setlinewidth} def
/PP {closepath eofill} bdef
/DP {closepath stroke} bdef
/MR {4 -2 roll moveto dup  0 exch rlineto exch 0 rlineto
  neg 0 exch rlineto closepath} bdef
/FR {MR stroke} bdef
/PR {MR fill} bdef
/L1i {{currentfile picstr readhexstring pop} image} bdef
/tMatrix matrix def
/MakeOval {newpath tMatrix currentmatrix pop translate scale
0 0 1 0 360 arc tMatrix setmatrix} bdef
/FO {MakeOval stroke} bdef
/PO {MakeOval fill} bdef
/PD {currentlinewidth 2 div 0 360 arc fill
   PDlw -1 eq not {PDlw w /PDlw -1 def} if} def
/FA {newpath tMatrix currentmatrix pop translate scale
  0 0 1 5 -2 roll arc tMatrix setmatrix stroke} bdef
/PA {newpath tMatrix currentmatrix pop	translate 0 0 moveto scale
  0 0 1 5 -2 roll arc closepath tMatrix setmatrix fill} bdef
/FAn {newpath tMatrix currentmatrix pop translate scale
  0 0 1 5 -2 roll arcn tMatrix setmatrix stroke} bdef
/PAn {newpath tMatrix currentmatrix pop translate 0 0 moveto scale
  0 0 1 5 -2 roll arcn closepath tMatrix setmatrix fill} bdef
/vradius 0 def /hradius 0 def /lry 0 def
/lrx 0 def /uly 0 def /ulx 0 def /rad 0 def
/MRR {/vradius xdef /hradius xdef /lry xdef /lrx xdef /uly xdef
  /ulx xdef newpath tMatrix currentmatrix pop ulx hradius add uly
  vradius add translate hradius vradius scale 0 0 1 180 270 arc 
  tMatrix setmatrix lrx hradius sub uly vradius add translate
  hradius vradius scale 0 0 1 270 360 arc tMatrix setmatrix
  lrx hradius sub lry vradius sub translate hradius vradius scale
  0 0 1 0 90 arc tMatrix setmatrix ulx hradius add lry vradius sub
  translate hradius vradius scale 0 0 1 90 180 arc tMatrix setmatrix
  closepath} bdef
/FRR {MRR stroke } bdef
/PRR {MRR fill } bdef
/MlrRR {/lry xdef /lrx xdef /uly xdef /ulx xdef /rad lry uly sub 2 div def
  newpath tMatrix currentmatrix pop ulx rad add uly rad add translate
  rad rad scale 0 0 1 90 270 arc tMatrix setmatrix lrx rad sub lry rad
  sub translate rad rad scale 0 0 1 270 90 arc tMatrix setmatrix
  closepath} bdef
/FlrRR {MlrRR stroke } bdef
/PlrRR {MlrRR fill } bdef
/MtbRR {/lry xdef /lrx xdef /uly xdef /ulx xdef /rad lrx ulx sub 2 div def
  newpath tMatrix currentmatrix pop ulx rad add uly rad add translate
  rad rad scale 0 0 1 180 360 arc tMatrix setmatrix lrx rad sub lry rad
  sub translate rad rad scale 0 0 1 0 180 arc tMatrix setmatrix
  closepath} bdef
/FtbRR {MtbRR stroke } bdef
/PtbRR {MtbRR fill } bdef
/stri 6 array def /dtri 6 array def
/smat 6 array def /dmat 6 array def
/tmat1 6 array def /tmat2 6 array def /dif 3 array def
/asub {/ind2 exch def /ind1 exch def dup dup
  ind1 get exch ind2 get sub exch } bdef
/tri_to_matrix {
  2 0 asub 3 1 asub 4 0 asub 5 1 asub
  dup 0 get exch 1 get 7 -1 roll astore } bdef
/compute_transform {
  dmat dtri tri_to_matrix tmat1 invertmatrix 
  smat stri tri_to_matrix tmat2 concatmatrix } bdef
/ds {stri astore pop} bdef
/dt {dtri astore pop} bdef
/db {2 copy /cols xdef /rows xdef mul dup 3 mul string
  currentfile 
  3 index 0 eq {/ASCIIHexDecode filter}
  {/ASCII85Decode filter 3 index 2 eq {/RunLengthDecode filter} if }
  ifelse exch readstring pop
  dup 0 3 index getinterval /rbmap xdef
  dup 2 index dup getinterval /gbmap xdef
  1 index dup 2 mul exch getinterval /bbmap xdef pop pop}bdef
/it {gs np dtri aload pop moveto lineto lineto cp c
  cols rows 8 compute_transform 
  rbmap gbmap bbmap true 3 colorimage gr}bdef
/il {newpath moveto lineto stroke}bdef
currentdict end def
%%EndProlog

%%BeginSetup
MathWorks begin

0 cap

end
%%EndSetup

%%Page: 1 1
%%BeginPageSetup
%%PageBoundingBox:     0   141   612   650
MathWorks begin
bpage
%%EndPageSetup

%%BeginObject: obj1
bplot

/dpi2point 12 def
portraitMode 0000 7800 csm

    0     0  7352  6102 rc
86 dict begin %Colortable dictionary
/c0 { 0.000000 0.000000 0.000000 sr} bdef
/c1 { 1.000000 1.000000 1.000000 sr} bdef
/c2 { 0.900000 0.000000 0.000000 sr} bdef
/c3 { 0.000000 0.820000 0.000000 sr} bdef
/c4 { 0.000000 0.000000 0.800000 sr} bdef
/c5 { 0.910000 0.820000 0.320000 sr} bdef
/c6 { 1.000000 0.260000 0.820000 sr} bdef
/c7 { 0.000000 0.820000 0.820000 sr} bdef
c0
1 j
1 sg
   0    0 7353 6103 rf
6 w
0 5471 6299 0 0 -5471 981 5588 4 MP
PP
-6299 0 0 5471 6299 0 0 -5471 981 5588 5 MP stroke
4 w
DO
SO
6 w
0 sg
 981  117 mt 7280  117 L
 981 5588 mt 7280 5588 L
7280 5588 mt 7280  117 L
 981 5588 mt  981  117 L
 981 5588 mt 7280 5588 L
 981 5588 mt  981  117 L
 981 5588 mt  981 5526 L
 981  116 mt  981  179 L
%%IncludeResource: font Helvetica
/Helvetica /WindowsLatin1Encoding 216 FMSR

 831 5824 mt 
(0.8) s
2555 5588 mt 2555 5526 L
2555  116 mt 2555  179 L
2345 5824 mt 
(0.85) s
4130 5588 mt 4130 5526 L
4130  116 mt 4130  179 L
3980 5824 mt 
(0.9) s
5705 5588 mt 5705 5526 L
5705  116 mt 5705  179 L
5495 5824 mt 
(0.95) s
7280 5588 mt 7280 5526 L
7280  116 mt 7280  179 L
7220 5824 mt 
(1) s
 981 5588 mt 1043 5588 L
7280 5588 mt 7217 5588 L
 526 5668 mt 
(0.65) s
 981 4807 mt 1043 4807 L
7280 4807 mt 7217 4807 L
 646 4887 mt 
(0.7) s
 981 4025 mt 1043 4025 L
7280 4025 mt 7217 4025 L
 526 4105 mt 
(0.75) s
 981 3243 mt 1043 3243 L
7280 3243 mt 7217 3243 L
 646 3323 mt 
(0.8) s
 981 2462 mt 1043 2462 L
7280 2462 mt 7217 2462 L
 526 2542 mt 
(0.85) s
 981 1680 mt 1043 1680 L
7280 1680 mt 7217 1680 L
 646 1760 mt 
(0.9) s
 981  898 mt 1043  898 L
7280  898 mt 7217  898 L
 526  978 mt 
(0.95) s
 981  116 mt 1043  116 L
7280  116 mt 7217  116 L
 826  196 mt 
(1) s
 981  117 mt 7280  117 L
 981 5588 mt 7280 5588 L
7280 5588 mt 7280  117 L
 981 5588 mt  981  117 L
1614 6038 mt 
(Recall: Fraction of ground-truth boundaries detected) s
 174 3327 mt  -90 rotate
(Precision:) s
90 rotate
 423 5652 mt  -90 rotate
( Fraction of automatic segment boundaries that are correct) s
90 rotate
%%IncludeResource: font Helvetica
/Helvetica /WindowsLatin1Encoding 120 FMSR

 964 5631 mt 
( ) s
7264  158 mt 
( ) s
gs 981 116 6300 5473 rc
36 w
/c8 { 0.000000 1.000000 0.000000 sr} bdef
c8
72 140 156 244 263 344 386 397 797 325 974 288 2285 395 1927 1140 8 MP stroke
gr

36 w
c8
0 j
69 119 -138 0 69 -119 1927 1219 4 MP
DP
69 119 -138 0 69 -119 4212 1614 4 MP
DP
69 119 -138 0 69 -119 5186 1902 4 MP
DP
69 119 -138 0 69 -119 5983 2227 4 MP
DP
69 119 -138 0 69 -119 6369 2624 4 MP
DP
69 119 -138 0 69 -119 6632 2968 4 MP
DP
69 119 -138 0 69 -119 6788 3212 4 MP
DP
69 119 -138 0 69 -119 6860 3352 4 MP
DP
gs 981 116 6300 5473 rc
/c9 { 1.000000 0.000000 0.000000 sr} bdef
c9
164 572 501 1200 782 998 4097 1011 1542 1171 5 MP stroke
gr

c9
72 95 -72 95 -72 -95 72 -95 1542 1266 5 MP
DP
72 95 -72 95 -72 -95 72 -95 5639 2277 5 MP
DP
72 95 -72 95 -72 -95 72 -95 6421 3275 5 MP
DP
72 95 -72 95 -72 -95 72 -95 6922 4475 5 MP
DP
72 95 -72 95 -72 -95 72 -95 7086 5047 5 MP
DP
gs 981 116 6300 5473 rc
6 w
gr

6 w
1 sg
0 813 4914 0 0 -813 1247 5403 4 MP
PP
-4914 0 0 813 4914 0 0 -813 1247 5403 5 MP stroke
4 w
DO
SO
6 w
0 sg
1247 4590 mt 6161 4590 L
1247 5403 mt 6161 5403 L
6161 5403 mt 6161 4590 L
1247 5403 mt 1247 4590 L
1247 5403 mt 6161 5403 L
1247 5403 mt 1247 4590 L
1247 4590 mt 6161 4590 L
1247 5403 mt 6161 5403 L
6161 5403 mt 6161 4590 L
1247 5403 mt 1247 4590 L
%%IncludeResource: font Helvetica
/Helvetica /WindowsLatin1Encoding 216 FMSR

1715 4885 mt 
(Non. param. norm. hist. 1-Nearest neighbor) s
gs 1247 4590 4915 814 rc
36 w
c8
360 0 1319 4808 2 MP stroke
gs 1341 4650 317 317 rc
69 119 -138 0 69 -119 1499 4887 4 MP
DP
gr

gr

36 w
c8
0 sg
1715 5263 mt 
(Non. param. unnorm. hist 1-Nearest neighbor) s
gs 1247 4590 4915 814 rc
c9
360 0 1319 5184 2 MP stroke
gs 1317 5002 365 365 rc
72 95 -72 95 -72 -95 72 -95 1499 5279 5 MP
DP
gr

6 w
gr

6 w
c9

end %%Color Dict

eplot
%%EndObject

epage
end

showpage

%%Trailer
%%EOF
