%!PS-Adobe-3.0 EPSF-3.0
%%Creator: MATLAB, The Mathworks, Inc. Version 7.5.0.342 (R2007b). Operating System: Microsoft Windows XP.
%%Title: Z:\research\em_reconstruction_pipeline\reconstructions\scripts\em_segmentation_paper\seg_boundary_eval_results\seg_boundary_prec_recl_medulla_ac_x12_x16_np_paper_f.eps
%%CreationDate: 06/04/2009  16:49:35
%%DocumentNeededFonts: Helvetica
%%DocumentProcessColors: Cyan Magenta Yellow Black
%%LanguageLevel: 2
%%Pages: 1
%%BoundingBox:     0   142   614   649
%%EndComments

%%BeginProlog
% MathWorks dictionary
/MathWorks 160 dict begin
% definition operators
/bdef {bind def} bind def
/ldef {load def} bind def
/xdef {exch def} bdef
/xstore {exch store} bdef
% operator abbreviations
/c  /clip ldef
/cc /concat ldef
/cp /closepath ldef
/gr /grestore ldef
/gs /gsave ldef
/mt /moveto ldef
/np /newpath ldef
/cm /currentmatrix ldef
/sm /setmatrix ldef
/rm /rmoveto ldef
/rl /rlineto ldef
/s {show newpath} bdef
/sc {setcmykcolor} bdef
/sr /setrgbcolor ldef
/sg /setgray ldef
/w /setlinewidth ldef
/j /setlinejoin ldef
/cap /setlinecap ldef
/rc {rectclip} bdef
/rf {rectfill} bdef
% page state control
/pgsv () def
/bpage {/pgsv save def} bdef
/epage {pgsv restore} bdef
/bplot /gsave ldef
/eplot {stroke grestore} bdef
% orientation switch
/portraitMode 0 def /landscapeMode 1 def /rotateMode 2 def
% coordinate system mappings
/dpi2point 0 def
% font control
/FontSize 0 def
/FMS {/FontSize xstore findfont [FontSize 0 0 FontSize neg 0 0]
  makefont setfont} bdef
/ISOLatin1Encoding where {pop /WindowsLatin1Encoding 256 array bdef
ISOLatin1Encoding WindowsLatin1Encoding copy pop
/.notdef/.notdef/quotesinglbase/florin/quotedblbase/ellipsis/dagger
/daggerdbl/circumflex/perthousand/Scaron/guilsinglleft/OE/.notdef/.notdef
/.notdef/.notdef/quoteleft/quoteright/quotedblleft/quotedblright/bullet
/endash/emdash/tilde/trademark/scaron/guilsinglright/oe/.notdef/.notdef
/Ydieresis WindowsLatin1Encoding 128 32 getinterval astore pop}
{/WindowsLatin1Encoding StandardEncoding bdef} ifelse
/reencode {exch dup where {pop load} {pop StandardEncoding} ifelse
  exch dup 3 1 roll findfont dup length dict begin
  { 1 index /FID ne {def}{pop pop} ifelse } forall
  /Encoding exch def currentdict end definefont pop} bdef
/isroman {findfont /CharStrings get /Agrave known} bdef
/FMSR {3 1 roll 1 index dup isroman {reencode} {pop pop} ifelse
  exch FMS} bdef
/csm {1 dpi2point div -1 dpi2point div scale neg translate
 dup landscapeMode eq {pop -90 rotate}
  {rotateMode eq {90 rotate} if} ifelse} bdef
% line types: solid, dotted, dashed, dotdash
/SO { [] 0 setdash } bdef
/DO { [.5 dpi2point mul 4 dpi2point mul] 0 setdash } bdef
/DA { [6 dpi2point mul] 0 setdash } bdef
/DD { [.5 dpi2point mul 4 dpi2point mul 6 dpi2point mul 4
  dpi2point mul] 0 setdash } bdef
% macros for lines and objects
/L {lineto stroke} bdef
/MP {3 1 roll moveto 1 sub {rlineto} repeat} bdef
/AP {{rlineto} repeat} bdef
/PDlw -1 def
/W {/PDlw currentlinewidth def setlinewidth} def
/PP {closepath eofill} bdef
/DP {closepath stroke} bdef
/MR {4 -2 roll moveto dup  0 exch rlineto exch 0 rlineto
  neg 0 exch rlineto closepath} bdef
/FR {MR stroke} bdef
/PR {MR fill} bdef
/L1i {{currentfile picstr readhexstring pop} image} bdef
/tMatrix matrix def
/MakeOval {newpath tMatrix currentmatrix pop translate scale
0 0 1 0 360 arc tMatrix setmatrix} bdef
/FO {MakeOval stroke} bdef
/PO {MakeOval fill} bdef
/PD {currentlinewidth 2 div 0 360 arc fill
   PDlw -1 eq not {PDlw w /PDlw -1 def} if} def
/FA {newpath tMatrix currentmatrix pop translate scale
  0 0 1 5 -2 roll arc tMatrix setmatrix stroke} bdef
/PA {newpath tMatrix currentmatrix pop	translate 0 0 moveto scale
  0 0 1 5 -2 roll arc closepath tMatrix setmatrix fill} bdef
/FAn {newpath tMatrix currentmatrix pop translate scale
  0 0 1 5 -2 roll arcn tMatrix setmatrix stroke} bdef
/PAn {newpath tMatrix currentmatrix pop translate 0 0 moveto scale
  0 0 1 5 -2 roll arcn closepath tMatrix setmatrix fill} bdef
/vradius 0 def /hradius 0 def /lry 0 def
/lrx 0 def /uly 0 def /ulx 0 def /rad 0 def
/MRR {/vradius xdef /hradius xdef /lry xdef /lrx xdef /uly xdef
  /ulx xdef newpath tMatrix currentmatrix pop ulx hradius add uly
  vradius add translate hradius vradius scale 0 0 1 180 270 arc 
  tMatrix setmatrix lrx hradius sub uly vradius add translate
  hradius vradius scale 0 0 1 270 360 arc tMatrix setmatrix
  lrx hradius sub lry vradius sub translate hradius vradius scale
  0 0 1 0 90 arc tMatrix setmatrix ulx hradius add lry vradius sub
  translate hradius vradius scale 0 0 1 90 180 arc tMatrix setmatrix
  closepath} bdef
/FRR {MRR stroke } bdef
/PRR {MRR fill } bdef
/MlrRR {/lry xdef /lrx xdef /uly xdef /ulx xdef /rad lry uly sub 2 div def
  newpath tMatrix currentmatrix pop ulx rad add uly rad add translate
  rad rad scale 0 0 1 90 270 arc tMatrix setmatrix lrx rad sub lry rad
  sub translate rad rad scale 0 0 1 270 90 arc tMatrix setmatrix
  closepath} bdef
/FlrRR {MlrRR stroke } bdef
/PlrRR {MlrRR fill } bdef
/MtbRR {/lry xdef /lrx xdef /uly xdef /ulx xdef /rad lrx ulx sub 2 div def
  newpath tMatrix currentmatrix pop ulx rad add uly rad add translate
  rad rad scale 0 0 1 180 360 arc tMatrix setmatrix lrx rad sub lry rad
  sub translate rad rad scale 0 0 1 0 180 arc tMatrix setmatrix
  closepath} bdef
/FtbRR {MtbRR stroke } bdef
/PtbRR {MtbRR fill } bdef
/stri 6 array def /dtri 6 array def
/smat 6 array def /dmat 6 array def
/tmat1 6 array def /tmat2 6 array def /dif 3 array def
/asub {/ind2 exch def /ind1 exch def dup dup
  ind1 get exch ind2 get sub exch } bdef
/tri_to_matrix {
  2 0 asub 3 1 asub 4 0 asub 5 1 asub
  dup 0 get exch 1 get 7 -1 roll astore } bdef
/compute_transform {
  dmat dtri tri_to_matrix tmat1 invertmatrix 
  smat stri tri_to_matrix tmat2 concatmatrix } bdef
/ds {stri astore pop} bdef
/dt {dtri astore pop} bdef
/db {2 copy /cols xdef /rows xdef mul dup 3 mul string
  currentfile 
  3 index 0 eq {/ASCIIHexDecode filter}
  {/ASCII85Decode filter 3 index 2 eq {/RunLengthDecode filter} if }
  ifelse exch readstring pop
  dup 0 3 index getinterval /rbmap xdef
  dup 2 index dup getinterval /gbmap xdef
  1 index dup 2 mul exch getinterval /bbmap xdef pop pop}bdef
/it {gs np dtri aload pop moveto lineto lineto cp c
  cols rows 8 compute_transform 
  rbmap gbmap bbmap true 3 colorimage gr}bdef
/il {newpath moveto lineto stroke}bdef
currentdict end def
%%EndProlog

%%BeginSetup
MathWorks begin

0 cap

end
%%EndSetup

%%Page: 1 1
%%BeginPageSetup
%%PageBoundingBox:     0   142   614   649
MathWorks begin
bpage
%%EndPageSetup

%%BeginObject: obj1
bplot

/dpi2point 12 def
portraitMode 0000 7788 csm

    0     0  7371  6084 rc
87 dict begin %Colortable dictionary
/c0 { 0.000000 0.000000 0.000000 sr} bdef
/c1 { 1.000000 1.000000 1.000000 sr} bdef
/c2 { 0.900000 0.000000 0.000000 sr} bdef
/c3 { 0.000000 0.820000 0.000000 sr} bdef
/c4 { 0.000000 0.000000 0.800000 sr} bdef
/c5 { 0.910000 0.820000 0.320000 sr} bdef
/c6 { 1.000000 0.260000 0.820000 sr} bdef
/c7 { 0.000000 0.820000 0.820000 sr} bdef
c0
1 j
1 sg
   0    0 7372 6085 rf
6 w
0 5463 6299 0 0 -5463 1011 5584 4 MP
PP
-6299 0 0 5463 6299 0 0 -5463 1011 5584 5 MP stroke
4 w
DO
SO
6 w
0 sg
1011  121 mt 7310  121 L
1011 5584 mt 7310 5584 L
7310 5584 mt 7310  121 L
1011 5584 mt 1011  121 L
1011 5584 mt 7310 5584 L
1011 5584 mt 1011  121 L
1011 5584 mt 1011 5522 L
1011  121 mt 1011  184 L
%%IncludeResource: font Helvetica
/Helvetica /WindowsLatin1Encoding 216 FMSR

 861 5820 mt 
(0.8) s
2585 5584 mt 2585 5522 L
2585  121 mt 2585  184 L
2375 5820 mt 
(0.85) s
4160 5584 mt 4160 5522 L
4160  121 mt 4160  184 L
4010 5820 mt 
(0.9) s
5735 5584 mt 5735 5522 L
5735  121 mt 5735  184 L
5525 5820 mt 
(0.95) s
7310 5584 mt 7310 5522 L
7310  121 mt 7310  184 L
7250 5820 mt 
(1) s
1011 5584 mt 1073 5584 L
7310 5584 mt 7247 5584 L
 556 5664 mt 
(0.65) s
1011 4804 mt 1073 4804 L
7310 4804 mt 7247 4804 L
 676 4884 mt 
(0.7) s
1011 4024 mt 1073 4024 L
7310 4024 mt 7247 4024 L
 556 4104 mt 
(0.75) s
1011 3243 mt 1073 3243 L
7310 3243 mt 7247 3243 L
 676 3323 mt 
(0.8) s
1011 2463 mt 1073 2463 L
7310 2463 mt 7247 2463 L
 556 2543 mt 
(0.85) s
1011 1682 mt 1073 1682 L
7310 1682 mt 7247 1682 L
 676 1762 mt 
(0.9) s
1011  902 mt 1073  902 L
7310  902 mt 7247  902 L
 556  982 mt 
(0.95) s
1011  121 mt 1073  121 L
7310  121 mt 7247  121 L
 856  201 mt 
(1) s
1011  121 mt 7310  121 L
1011 5584 mt 7310 5584 L
7310 5584 mt 7310  121 L
1011 5584 mt 1011  121 L
gs 1011 121 6300 5464 rc
36 w
/c8 { 0.000000 0.000000 1.000000 sr} bdef
c8
143 511 615 1009 1071 698 1095 439 1277 200 2903 789 6 MP stroke
gs 2721 607 4566 3222 rc
0 j
-83 143 -83 -143 166 0 2820 837 4 MP
DP
-83 143 -83 -143 166 0 4097 1037 4 MP
DP
-83 143 -83 -143 166 0 5192 1476 4 MP
DP
-83 143 -83 -143 166 0 6263 2174 4 MP
DP
-83 143 -83 -143 166 0 6878 3183 4 MP
DP
-83 143 -83 -143 166 0 7021 3694 4 MP
DP
gr

gr

36 w
c8
0 sg
1644 6034 mt 
(Recall: Fraction of ground-truth boundaries detected) s
 204 3328 mt  -90 rotate
(Precision:) s
90 rotate
 453 5623 mt  -90 rotate
(Fraction of automatic segment boundaries that are correct) s
90 rotate
gs 1011 121 6300 5464 rc
/c9 { 1.000000 0.000000 0.000000 sr} bdef
c9
-1839 -515 -1005 -494 -721 -581 -570 -529 -328 -567 -219 -494 -120 -561 -42 -518 
7224 5585 9 MP stroke
gr

c9
  72   72 7182 5067 FO
  72   72 7062 4506 FO
  72   72 6843 4012 FO
  72   72 6515 3445 FO
  72   72 5945 2916 FO
  72   72 5224 2335 FO
  72   72 4219 1841 FO
  72   72 2380 1326 FO
/c10 { 1.000000 0.000000 1.000000 sr} bdef
c10
-1835 -634 -1124 -1131 -526 -1225 -241 -1041 -50 -671 7227 5585 6 MP stroke
0 j
0 -114 -114 0 0 114 114 0 7120 4857 5 MP
DP
0 -114 -114 0 0 114 114 0 6879 3816 5 MP
DP
0 -114 -114 0 0 114 114 0 6353 2591 5 MP
DP
0 -114 -114 0 0 114 114 0 5229 1460 5 MP
DP
0 -114 -114 0 0 114 114 0 3394 826 5 MP
DP
0 sg
%%IncludeResource: font Helvetica
/Helvetica /WindowsLatin1Encoding 120 FMSR

 994 5627 mt 
( ) s
7294  163 mt 
( ) s
gs 1011 121 6300 5464 rc
/c11 { 0.000000 1.000000 0.000000 sr} bdef
c11
72 139 156 245 263 343 386 396 797 325 974 287 2285 395 1957 1143 8 MP stroke
gs 1799 985 5250 2447 rc
69 119 -138 0 69 -119 1957 1222 4 MP
DP
69 119 -138 0 69 -119 4242 1617 4 MP
DP
69 119 -138 0 69 -119 5216 1904 4 MP
DP
69 119 -138 0 69 -119 6013 2229 4 MP
DP
69 119 -138 0 69 -119 6399 2625 4 MP
DP
69 119 -138 0 69 -119 6662 2968 4 MP
DP
69 119 -138 0 69 -119 6818 3213 4 MP
DP
69 119 -138 0 69 -119 6890 3352 4 MP
DP
gr

6 w
gr

6 w
c11
1 sg
0 1137 5056 0 0 -1137 1267 5240 4 MP
PP
-5056 0 0 1137 5056 0 0 -1137 1267 5240 5 MP stroke
4 w
DO
SO
6 w
0 sg
1267 4103 mt 6323 4103 L
1267 5240 mt 6323 5240 L
6323 5240 mt 6323 4103 L
1267 5240 mt 1267 4103 L
1267 5240 mt 6323 5240 L
1267 5240 mt 1267 4103 L
1267 4103 mt 6323 4103 L
1267 5240 mt 6323 5240 L
6323 5240 mt 6323 4103 L
1267 5240 mt 1267 4103 L
%%IncludeResource: font Helvetica
/Helvetica /WindowsLatin1Encoding 216 FMSR

1768 4349 mt 
(Non. param. - norm. hist. ) s
%%IncludeResource: font Symbol
/Symbol /WindowsLatin1Encoding 216 FMSR

4222 4349 mt 
(D) s
%%IncludeResource: font Helvetica
/Helvetica /WindowsLatin1Encoding 216 FMSR

4354 4349 mt 
( = 1.6) s
gs 1267 4103 5057 1138 rc
36 w
c8
385 0 1344 4271 2 MP stroke
gr

36 w
c8
gs 1354 4089 365 365 rc
-83 143 -83 -143 166 0 1453 4319 4 MP
DP
gr

gs 1267 4103 5057 1138 rc
gr

0 sg
1768 4629 mt 
(Watershed) s
gs 1267 4103 5057 1138 rc
c9
385 0 1344 4551 2 MP stroke
gs 1354 4369 365 365 rc
  72   72 1536 4551 FO
gr

gr

c9
0 sg
1768 4896 mt 
(Agglomerative Mean Boundary) s
gs 1267 4103 5057 1138 rc
c10
385 0 1344 4818 2 MP stroke
gs 1354 4636 365 365 rc
0 -114 -114 0 0 114 114 0 1479 4761 5 MP
DP
gr

gr

c10
0 sg
1768 5163 mt 
(Non. param. norm. hist. 1-Nearest neighbor) s
gs 1267 4103 5057 1138 rc
c11
385 0 1344 5085 2 MP stroke
gr

c11
gs 1378 4927 317 317 rc
69 119 -138 0 69 -119 1536 5164 4 MP
DP
gr

gs 1267 4103 5057 1138 rc
6 w
gr

6 w

end %%Color Dict

eplot
%%EndObject

epage
end

showpage

%%Trailer
%%EOF
