GFORTRAN module version '0' created from fnpy.f95 on Thu Apr  8 18:33:56 2010
MD5:165f5af27c012ce86fe7b587d741d61f -- If you edit this, you'll get what you deserve.

(() () () () () () () () () () () () () () () () () () () () () () () ()
() () ())

()

()

()

()

(2 'save_complex_double' 'fnpy' 'save_complex_double' 1 ((PROCEDURE
UNKNOWN-INTENT MODULE-PROC DECL UNKNOWN SUBROUTINE ALWAYS_EXPLICIT) (
UNKNOWN 0 0 0 UNKNOWN ()) 3 0 (4 5 6) () 0 () () () 0 0)
7 'save_complex_single' 'fnpy' 'save_complex_single' 1 ((PROCEDURE
UNKNOWN-INTENT MODULE-PROC DECL UNKNOWN SUBROUTINE ALWAYS_EXPLICIT) (
UNKNOWN 0 0 0 UNKNOWN ()) 8 0 (9 10 11) () 0 () () () 0 0)
12 'save_double' 'fnpy' 'save_double' 1 ((PROCEDURE UNKNOWN-INTENT
MODULE-PROC DECL UNKNOWN SUBROUTINE ALWAYS_EXPLICIT) (UNKNOWN 0 0 0
UNKNOWN ()) 13 0 (14 15 16) () 0 () () () 0 0)
17 'save_integer' 'fnpy' 'save_integer' 1 ((PROCEDURE UNKNOWN-INTENT
MODULE-PROC DECL UNKNOWN SUBROUTINE ALWAYS_EXPLICIT) (UNKNOWN 0 0 0
UNKNOWN ()) 18 0 (19 20 21) () 0 () () () 0 0)
22 'save_single' 'fnpy' 'save_single' 1 ((PROCEDURE UNKNOWN-INTENT
MODULE-PROC DECL UNKNOWN SUBROUTINE ALWAYS_EXPLICIT) (UNKNOWN 0 0 0
UNKNOWN ()) 23 0 (24 25 26) () 0 () () () 0 0)
24 'fname' '' 'fname' 23 ((VARIABLE IN UNKNOWN-PROC UNKNOWN UNKNOWN
DUMMY) (CHARACTER 1 0 0 CHARACTER (())) 0 0 () () 0 () () () 0 0)
25 'shape' '' 'shape' 23 ((VARIABLE IN UNKNOWN-PROC UNKNOWN UNKNOWN
DIMENSION DUMMY) (INTEGER 4 1 0 INTEGER ()) 0 0 () (1 ASSUMED_SHAPE (
CONSTANT (INTEGER 4 0 0 INTEGER ()) 0 '1') ()) 0 () () () 0 0)
26 'a' '' 'a' 23 ((VARIABLE IN UNKNOWN-PROC UNKNOWN UNKNOWN DIMENSION
DUMMY) (REAL 4 1 0 REAL ()) 0 0 () (1 ASSUMED_SIZE (CONSTANT (INTEGER 4
0 0 INTEGER ()) 0 '1') ()) 0 () () () 0 0)
14 'fname' '' 'fname' 13 ((VARIABLE IN UNKNOWN-PROC UNKNOWN UNKNOWN
DUMMY) (CHARACTER 1 0 0 CHARACTER (())) 0 0 () () 0 () () () 0 0)
15 'shape' '' 'shape' 13 ((VARIABLE IN UNKNOWN-PROC UNKNOWN UNKNOWN
DIMENSION DUMMY) (INTEGER 4 1 0 INTEGER ()) 0 0 () (1 ASSUMED_SHAPE (
CONSTANT (INTEGER 4 0 0 INTEGER ()) 0 '1') ()) 0 () () () 0 0)
16 'a' '' 'a' 13 ((VARIABLE IN UNKNOWN-PROC UNKNOWN UNKNOWN DIMENSION
DUMMY) (REAL 8 1 0 REAL ()) 0 0 () (1 ASSUMED_SIZE (CONSTANT (INTEGER 4
0 0 INTEGER ()) 0 '1') ()) 0 () () () 0 0)
19 'fname' '' 'fname' 18 ((VARIABLE IN UNKNOWN-PROC UNKNOWN UNKNOWN
DUMMY) (CHARACTER 1 0 0 CHARACTER (())) 0 0 () () 0 () () () 0 0)
20 'shape' '' 'shape' 18 ((VARIABLE IN UNKNOWN-PROC UNKNOWN UNKNOWN
DIMENSION DUMMY) (INTEGER 4 1 0 INTEGER ()) 0 0 () (1 ASSUMED_SHAPE (
CONSTANT (INTEGER 4 0 0 INTEGER ()) 0 '1') ()) 0 () () () 0 0)
21 'a' '' 'a' 18 ((VARIABLE IN UNKNOWN-PROC UNKNOWN UNKNOWN DIMENSION
DUMMY) (INTEGER 4 1 0 INTEGER ()) 0 0 () (1 ASSUMED_SIZE (CONSTANT (
INTEGER 4 0 0 INTEGER ()) 0 '1') ()) 0 () () () 0 0)
9 'fname' '' 'fname' 8 ((VARIABLE IN UNKNOWN-PROC UNKNOWN UNKNOWN DUMMY)
(CHARACTER 1 0 0 CHARACTER (())) 0 0 () () 0 () () () 0 0)
10 'shape' '' 'shape' 8 ((VARIABLE IN UNKNOWN-PROC UNKNOWN UNKNOWN
DIMENSION DUMMY) (INTEGER 4 1 0 INTEGER ()) 0 0 () (1 ASSUMED_SHAPE (
CONSTANT (INTEGER 4 0 0 INTEGER ()) 0 '1') ()) 0 () () () 0 0)
11 'a' '' 'a' 8 ((VARIABLE IN UNKNOWN-PROC UNKNOWN UNKNOWN DIMENSION
DUMMY) (COMPLEX 4 1 0 COMPLEX ()) 0 0 () (1 ASSUMED_SIZE (CONSTANT (
INTEGER 4 0 0 INTEGER ()) 0 '1') ()) 0 () () () 0 0)
4 'fname' '' 'fname' 3 ((VARIABLE IN UNKNOWN-PROC UNKNOWN UNKNOWN DUMMY)
(CHARACTER 1 0 0 CHARACTER (())) 0 0 () () 0 () () () 0 0)
5 'shape' '' 'shape' 3 ((VARIABLE IN UNKNOWN-PROC UNKNOWN UNKNOWN
DIMENSION DUMMY) (INTEGER 4 1 0 INTEGER ()) 0 0 () (1 ASSUMED_SHAPE (
CONSTANT (INTEGER 4 0 0 INTEGER ()) 0 '1') ()) 0 () () () 0 0)
6 'a' '' 'a' 3 ((VARIABLE IN UNKNOWN-PROC UNKNOWN UNKNOWN DIMENSION
DUMMY) (COMPLEX 8 1 0 COMPLEX ()) 0 0 () (1 ASSUMED_SIZE (CONSTANT (
INTEGER 4 0 0 INTEGER ()) 0 '1') ()) 0 () () () 0 0)
)

('save_complex_double' 0 2 'save_complex_single' 0 7 'save_double' 0 12
'save_integer' 0 17 'save_single' 0 22)
